<svg version="1.2" xmlns="http://www.w3.org/2000/svg" viewBox="0 0 1915 1105" width="1915" height="1105">
	<title>bgSection1</title>
	<style>
		.s0 { fill: #2f2f2f } 
		.s1 { opacity: .3;fill: #2f2f2f } 
		.s2 { opacity: .6;fill: #2f2f2f } 
	</style>
	<g id="Background">
		<path id="Path 0" fill-rule="evenodd" class="s0" d="m1271.5 0.2c3.3-0.1 16.3 0.3 29 0.8 12.7 0.6 28.6 1.5 35.5 2 6.9 0.6 18.1 1.8 25 2.6 6.9 0.9 19.7 2.7 28.5 4 8.8 1.4 24.5 4.3 35 6.5 10.5 2.3 26.7 6.3 36 9 9.3 2.6 23.5 7 31.5 9.7 8 2.8 19.2 6.9 25 9.2 5.8 2.3 15.2 6.2 21 8.7 5.8 2.5 17.9 8.3 27 12.8 9.1 4.5 21.7 11.1 28 14.7 6.3 3.6 15.3 8.9 20 11.8 4.7 2.9 13.2 8.5 19 12.3 5.8 3.9 15.7 10.8 22 15.5 6.3 4.7 16 12.2 21.5 16.6 5.5 4.5 13.7 11.4 18.3 15.3 4.5 4 8.8 7.3 9.4 7.3 0.7 0-0.3-1.6-2.2-3.5-1.9-1.9-3.2-3.5-2.8-3.5 0.5 0 6.8 5.1 14 11.4 7.3 6.3 15 13.5 17 16 2.1 2.5 3.8 4.9 3.8 5.3 0.1 0.5-2-1.1-4.5-3.5-2.5-2.3-4.8-4-5.3-3.7-0.4 0.3 4.3 5.5 10.3 11.5 6.6 6.5 12 11.1 13.5 11.3 1.6 0.3 7.5 5.7 16.7 15.3 7.7 8.2 18.2 19.6 23.3 25.4 5 5.8 14.2 16.8 20.4 24.5 6.1 7.7 16.1 20.8 22.2 29 6.1 8.2 15.7 22 21.4 30.5 5.7 8.5 12.5 19.1 15.1 23.5 2.6 4.4 7.4 13.4 10.7 20 3.3 6.6 8 17.2 10.5 23.5 2.5 6.3 6.2 16.9 8.2 23.5 2 6.6 4.9 17.4 6.5 24 1.6 6.6 3.8 17.2 4.9 23.5 1.1 6.3 2.7 16.4 3.5 22.5 0.8 6.1 2.2 18.2 3.1 27 1 10.4 1.5 26.8 1.5 47 0 17-0.7 42.7-1.5 57-0.8 14.3-1.9 38.6-2.5 54-0.6 15.4-1.8 36.8-2.6 47.5-0.8 10.7-2.4 28.2-3.4 38.8-1.1 10.5-3.8 32.4-5.9 48.5-2.2 16-5.4 37.7-7 48.2-1.7 10.5-3.4 20.4-3.7 22-0.3 1.9-0.9 2.6-1.5 2-0.6-0.6 0.2-8.6 2.1-21.8 1.6-11.4 3-21.5 2.9-22.4 0-1-2.7 10.3-5.9 25.2-3.3 14.9-9.6 45.7-14 68.5-4.5 22.8-8.3 42.5-8.6 43.8-0.2 1.2-0.7 2.2-1.1 2.2-0.5 0-1.6-1.5-2.5-3.5-1-1.9-2.4-3.4-3-3.2-0.7 0.2-2.3 1.9-3.6 3.8-1.3 1.9-3.4 7-4.8 11.4-1.4 4.4-4.9 17.5-7.8 29-3 11.5-7.9 31.8-11 45-3.2 13.2-5.9 24.8-6.2 25.8-0.2 0.9-0.9 1.5-1.4 1.2-0.5-0.3-87.5-0.7-193.3-1-105.7-0.3-208.6-0.9-228.7-1.5-20.1-0.5-46.6-1.5-59-2-12.4-0.6-29.5-1.5-38-2.1-8.5-0.5-22.2-1.7-30.5-2.5-8.2-0.8-20.8-2.4-28-3.5-7.2-1-16.4-2.7-20.5-3.7-5.7-1.4-8.1-1.6-9.8-0.8-1.2 0.6-2.3 1.8-2.3 2.6 0.1 0.8 1.6 2.3 3.6 3.3 1.9 0.9 9 2.8 15.8 4.2 6.7 1.3 23.2 3.6 36.7 4.9 13.5 1.4 34.2 3.2 46 4 11.8 0.9 29.8 2 40 2.6 10.2 0.5 30.9 1.4 46 2 15.1 0.6 41.2 1.6 58 2.2 16.8 0.7 76.8 1.3 133.5 1.4 56.7 0.1 122.3 0.7 146 1.3 23.7 0.6 54.8 1.1 95.5 1.1l0.9-3.8c0.6-2 2.8-10.9 5-19.7 2.2-8.8 6.2-25.9 9-38 2.8-12.1 5.1-22.5 5.1-23 0-0.5 0.5-0.2 1 0.7 0.7 1.3 0 6.7-2.4 18.6-1.9 9.2-6 28.4-9.1 42.7-3.1 14.3-5.8 26.3-6.1 26.7-0.2 0.5-38.1 0.8-84.2 0.9-49 0.1-82.2 0.5-80.2 1 1.9 0.4 18.6 0.8 37 0.8 18.4 0 55.4 0.4 82.3 0.8 48.3 0.8 48.7 0.8 48.7-1.2 0-1.7 0.2-1.7 1-0.5 0.5 0.8 1 2.1 1 2.7 0 1-8.2 1.3-37.7 1.3-20.8 0-74-0.5-118.3-1.2-44.3-0.7-78.5-1.6-76-2 2.5-0.3 9-0.8 14.5-0.9 6.8-0.2 3.6-0.5-10-0.9-11-0.3-25.2-0.3-43 0.5l7.5 0.6c5.9 0.4 4.4 0.6-7.2 0.7-8.2 0.1-14.8-0.1-14.8-0.6 0-0.4-35.2-0.8-78.2-0.9-47.2-0.1-85.9-0.7-97.3-1.4-11.9-0.7-30.6-1-50-0.6-17 0.3-54.4 0.1-83-0.4-28.6-0.5-80.8-1.6-116-2.4-35.2-0.8-84.9-2.2-110.5-3-25.6-0.9-76.6-2.6-113.5-4-36.9-1.3-81.2-2.9-98.5-3.5-17.3-0.6-48.1-1.5-68.5-2-20.4-0.6-62.5-1-93.8-1-37.1 0-56.7 0.3-56.7 1 0 0.5 1.2 1 2.8 1 1.5 0 4.8 0.3 7.4 0.7 2.6 0.5 4.5 1 4.3 1.3-0.2 0.3-54 0.4-119.7 0.3-65.6-0.1-138-0.6-160.8-1.2-22.8-0.6-63.3-1.6-90-2.2-26.7-0.6-58.8-1.2-71.5-1.3-18.8-0.2-23.8-0.6-27.5-2-2.5-0.9-5.8-2.9-7.3-4.4-1.6-1.5-3.6-4-4.4-5.7-0.9-1.7-2.2-6.6-3-11-0.7-4.4-5.4-20.8-10.3-36.5-4.8-15.7-10.2-33-11.9-38.5-1.6-5.5-6.4-21.5-10.5-35.5-4.1-14-11.1-38.1-15.5-53.5-4.4-15.4-11.1-39.5-15-53.5-3.8-14-10.3-38.3-14.4-54-4.2-15.7-9.1-34.8-11.1-42.5-1.9-7.7-5.4-21.9-7.6-31.5-2.3-9.6-6.1-27.2-8.6-39-2.5-11.8-7.2-35.5-10.5-52.5-3.2-17-5.9-33.6-5.9-36.8 0-3.1 0.5-5.9 1-6.2 0.6-0.3 1.9 0.3 3 1.2q2 1.8 3.7 1c1.6-0.7 1.7-1.8 1.1-9.5-0.4-4.9-0.3-9.4 0.2-10.2 0.7-1.2 1-1 1.4 1 0.3 1.4 2.2 14.6 4.1 29.5 2 14.9 4.7 32.4 6 39 1.3 6.6 3.3 15 4.5 18.7 1.1 3.8 2.5 7 3 7.3 0.6 0.3 1.3-0.7 1.6-2.3 0.4-1.5 0.3-6.3-0.1-10.7-0.4-4.4-2.7-17.9-5.1-30-2.5-12.1-6.7-35-9.4-51-2.7-16-6-38.2-7.5-49.5-1.4-11.3-3.2-28.1-4-37.5-0.8-9.4-1.8-24.6-2.1-34-0.4-10.1-0.2-22.9 0.5-31.5 0.6-8 1.8-18.3 2.6-23 0.8-4.7 2.6-12.6 4-17.5 1.5-4.9 4.2-11.9 6-15.5 1.9-3.6 5-8.3 6.8-10.5 1.9-2.2 5.6-5.4 8.3-7.2 2.7-1.8 7.8-4 11.4-4.9 6.1-1.5 7.7-1.5 24 0 9.6 0.9 23.8 2.1 31.5 2.6 7.7 0.6 28.4 1.3 46 1.6 17.6 0.3 39.4 0.2 65-1.1l-9.7-2.3c-5.4-1.2-10-2.6-10.3-3.2-0.3-0.6 1.3-1 3.8-1 2.3 0 15.5-0.5 29.2-1 13.8-0.5 35.6-1.7 48.5-2.5 12.9-0.9 27.2-1.9 31.7-2.3 5.7-0.5 8.6-1.2 9.5-2.3 0.8-1.1 3.6-1.9 7.8-2.3 3.6-0.4 21.8-2.9 40.5-5.7 18.7-2.7 44.8-7 58-9.5 13.2-2.5 27.8-5.3 32.5-6.3 4.7-1.1 7.7-1.9 6.8-2-1-0.1-7.5 0.8-14.5 1.9-7.1 1.1-23.1 3.5-35.8 5.5-12.6 1.9-35.8 5.3-51.5 7.5-15.7 2.2-36.6 4.9-46.5 6-9.9 1-25 2.6-33.5 3.5-8.5 0.8-24.7 2.2-36 3-11.3 0.8-31.5 1.8-69.5 2.9l-7.7-2.7c-4.3-1.5-7.8-3-7.8-3.5 0-0.4 11.8-1 26.2-1.4 14.5-0.4 35.3-1.4 46.3-2.3 11-0.8 31-2.6 44.5-4 13.5-1.4 38.2-4.6 55-7 16.8-2.5 41.8-6.6 55.5-9.1 13.8-2.5 35.6-6.7 48.5-9.4 12.9-2.7 33.6-7.2 46-10 12.4-2.8 36.9-8.7 54.5-13.1 17.6-4.4 41.2-10.5 52.5-13.5 11.3-3 30.4-8.2 42.5-11.5 12.1-3.4 44.7-12.6 72.5-20.6 27.8-7.9 50.7-14.7 51-15 0.3-0.3-0.6-0.3-2-0.1-1.4 0.3-11.3 2.8-22 5.6-10.7 2.8-29 7.6-40.5 10.7-11.5 3.2-26.4 7.2-33 9-6.6 1.7-30 8-52 13.9-22 5.9-55.1 14.5-73.5 19.2-18.4 4.6-42.5 10.4-53.5 12.9-11 2.5-31.7 7-46 10-14.3 3-36.1 7.2-48.5 9.4-12.4 2.3-31.9 5.4-43.5 7.1-11.5 1.7-28.2 3.9-37 5-8.8 1.1-23.9 2.6-33.5 3.4-9.6 0.9-25.4 2.1-35 2.7-9.6 0.7-33.4 1.2-88.2 1.4l-2.4-2.8c-1.3-1.5-2.4-3.7-2.4-5-0.1-1.2 0.8-3.4 4-7.7l16.8-0.5c9.2-0.3 25.9-1 37.2-1.5 11.3-0.6 29.1-1.7 39.5-2.6 10.5-0.8 23.3-1.9 28.5-2.5 5.2-0.5 21.9-2.6 37-4.5 15.1-1.9 41-5.7 57.5-8.5 16.5-2.7 39.2-6.8 50.5-9 11.3-2.2 32.6-6.7 47.5-10 14.9-3.3 41.2-9.5 58.5-13.9 17.3-4.3 40.5-10.4 51.5-13.4 11-3 27-7.5 35.5-10 8.5-2.4 21.1-6.1 28-8.1 6.9-2 19-5.7 27-8.2 8-2.4 21-6.4 29-8.9 8-2.5 26.6-8.6 41.5-13.5 16.7-5.4 35.2-10.7 48.5-13.8 11.8-2.7 28.7-6.8 37.5-9.1 8.8-2.3 24.1-6.4 34-9 9.9-2.7 28.8-7.9 42-11.5 13.2-3.6 33.2-9.1 44.5-12.1 11.3-3.1 34-8.9 50.5-12.9 16.5-4.1 35.2-8.5 41.5-9.9 6.3-1.4 12.4-2.6 13.5-2.7 1.1 0 1.5-0.3 1-0.5-0.5-0.3-12.7 1.3-27 3.6-14.3 2.2-29.6 4.8-34 5.6-4.4 0.9-17.7 4.3-29.5 7.6-11.8 3.2-28.9 7.9-38 10.4-9.1 2.5-24.1 6.1-33.5 8-9.3 1.9-17.4 3.1-17.8 2.7-0.4-0.5 4.3-2.6 10.5-4.8 6.2-2.1 10.8-4.1 10.3-4.2-0.5-0.2-17.2 3.9-37 9.2-19.8 5.3-39.8 10.7-44.5 12-4.7 1.3-17 4.7-27.5 7.5-10.5 2.8-25.3 6.9-33 9-7.7 2.1-29.1 7.7-47.5 12.4-18.4 4.7-40.5 9.9-49 11.6-10.4 2.1-15.8 2.7-16.5 2.1q-1-1.1 0.5-1.5c0.8-0.2 4.4-1.4 8-2.5 3.6-1.1 16.9-5 29.5-8.6 12.7-3.7 36.7-10.7 53.5-15.7 16.8-4.9 37.5-10.9 46-13.5 8.5-2.5 22-6.5 30-8.8 8-2.4 21.7-6.4 30.5-9 8.8-2.6 21.9-6.4 29-8.5 7.1-2.1 26.5-7.7 43-12.4 16.5-4.7 36.1-10.1 43.5-12.1 7.4-2 23.4-6.3 35.5-9.5 12.1-3.2 30.8-8 41.5-10.5 10.7-2.6 21.3-5.7 23.5-6.9 2.2-1.1 4.1-2.8 4.3-3.6 0.2-0.9-0.9-2-2.5-2.7-1.5-0.7-5.3-1.7-8.3-2.3-3-0.6-11.3-1.3-18.5-1.6-7.3-0.4-18.1-0.1-24.5 0.5-6.3 0.6-12.5 1.3-13.7 1.6-1.3 0.3-2.3 0-2.3-0.5 0-0.6 2.6-1.7 5.8-2.7 3.1-0.9 12-3.3 19.7-5.5 7.7-2.1 12-3.6 9.5-3.3-2.5 0.3-14.4 2.8-26.5 5.6-12.1 2.7-27.3 6.2-33.8 7.7-6.4 1.5-11.7 3-11.7 3.4 0 0.5 0.6 0.8 1.3 0.8 0.6 0 5-0.7 9.7-1.5 4.7-0.8 9.2-1.5 10-1.4 0.8 0 1 0.2 0.5 0.4-0.5 0.2-13.4 4-28.5 8.5-15.1 4.5-34.7 10.4-43.5 13.1-8.8 2.7-27.5 7.4-41.5 10.5-14 3.1-34.4 7.8-45.2 10.5-10.9 2.7-21.3 5.5-23 6.3-3.2 1.4-3 1.4 5.5 1.5 4.8 0.1 8.7 0.4 8.7 0.8 0 0.5-1.7 1.3-3.7 2-2.1 0.7-8.3 1.9-13.8 2.8-5.5 0.9-12.2 1.5-20 1l6-2.3c3.3-1.2 6.9-2.7 8-3.2 1.4-0.7-2.2-0.9-11.5-0.6-7.4 0.3-13.3 0.3-13 0.1 0.3-0.2 4.8-1.5 10-2.9 5.2-1.4 18.3-4.8 29-7.6 10.7-2.8 40.4-10.5 66-17.1 25.6-6.5 49.7-12.8 53.5-13.8 3.9-1.1 9.4-2.2 12.3-2.5 2.8-0.3 5.4-1.1 5.7-1.6 0.3-0.6 1.7-0.7 3.3-0.3 2 0.5 2.5 0.4 2-0.5-0.5-0.8-0.2-1.2 1-1.2 0.9 0 3.3-0.5 5.2-1.1 2.6-0.8 3.1-1.3 2-1.9-1.2-0.7-1.1-0.9 0.5-1.3 1.1-0.3 8.5-2.5 16.5-4.7 8-2.3 23-6.6 33.5-9.5 10.5-2.9 26.9-7.3 36.5-9.8 9.6-2.5 20.2-5.1 23.5-5.8 3.3-0.8 5.3-1.5 4.5-1.7-0.8-0.1-12.5 2-26 4.8-13.5 2.8-34.4 7.3-46.5 10-12.1 2.7-33.5 7.6-47.5 11-14 3.3-47.5 11.7-74.5 18.6-31.3 8-49.4 12.1-50 11.5-0.6-0.6 0.2-1.3 2.5-2 1.9-0.5 13.6-4.1 26-8 12.4-3.8 35.5-10.8 51.5-15.4 16-4.7 36.4-10.5 45.5-13.1 9.1-2.5 25.5-6.7 36.5-9.5 11-2.7 26.3-6.4 34-8.1 7.7-1.7 26.2-5.6 41-8.6 14.8-3 38.9-7.4 53.5-9.9 14.6-2.4 39.1-6 54.5-7.9 15.4-1.9 36.8-4.2 47.5-5.1 10.7-0.9 31.2-2 45.5-2.4 14.3-0.4 28.7-0.8 32-0.9zm-57 7.8c-8.2 0.6-22.4 2-31.5 3.1-9.1 1.1-23.5 3.1-32 4.4-8.5 1.3-20.1 3.2-25.7 4.2-5.6 1-10.1 1.9-10 2.1 0.1 0.1 11.2-1.1 24.7-2.7 13.5-1.7 31.9-3.7 41-4.6 9.1-0.8 23-1.9 31-2.5 8-0.5 26.4-1.2 41-1.6 15.7-0.4 35.8-0.2 49.5 0.5 12.7 0.6 30.4 1.8 39.5 2.7 9.1 0.8 24.6 2.6 34.5 4 9.9 1.4 18.4 2.3 18.8 2.2 0.5-0.2-9.7-2.2-22.5-4.6-12.8-2.3-28.7-4.9-35.3-5.7-6.6-0.8-18.6-1.9-26.7-2.5-8.2-0.5-27.7-0.9-43.5-0.8-15.9 0.1-30.8 0.3-33.3 0.5-2.5 0.1-11.2 0.8-19.5 1.3zm-17.5 10c-6.9 0.6-19.2 2-27.5 3.1-8.2 1.1-20.8 2.9-28 4-7.2 1.1-21.5 3.6-32 5.6-10.5 2-18.5 3.8-18 4 0.5 0.2 8.4-0.8 17.5-2.2 9.1-1.4 26-3.7 37.5-5 11.5-1.3 25.7-2.9 31.5-3.4 5.8-0.6 16.3-1.5 23.5-2.1 7.2-0.6 25.6-1.5 41-2 18.3-0.7 37-0.7 54 0 14.3 0.5 33.9 1.6 43.5 2.5 9.6 0.9 17.6 1.5 17.7 1.3 0.1-0.2-8.9-1.6-20-3.1-11.1-1.5-24.9-3.2-30.7-3.8-5.8-0.5-24-1.1-40.5-1.3-16.5-0.3-36.1-0.1-43.5 0.4-7.4 0.5-19.1 1.4-26 2zm61 36.6c-10.2 0.9-22 1.6-26.2 1.5-7.2-0.1-7.8 0.1-7.8 1.9 0 1.9 0.7 2 13.8 2 7.5 0 26.5 0.5 42.2 1 15.7 0.5 35.9 1.4 45 2 9.1 0.6 23.5 1.8 32 2.6 8.5 0.8 23.2 2.6 32.5 4 9.3 1.4 23.8 3.9 32 5.5 8.3 1.6 22 4.7 30.5 6.9 8.5 2.1 22.3 6.1 30.5 8.8 8.3 2.7 20.4 7.1 27 9.7 6.6 2.6 20.8 8.9 31.5 14.2 10.7 5.2 24.9 12.6 31.5 16.5 6.6 3.9 18.1 11.2 25.5 16.1 7.4 5 19.3 13.4 26.5 18.8 7.2 5.3 18 13.8 24 18.9 6 5 16.6 14.2 23.5 20.5 6.9 6.2 19.7 18.6 28.5 27.6 8.8 9.1 22.2 23.6 29.7 32.4 7.6 8.8 19.4 23.4 26.4 32.5 6.9 9.1 18.3 24.8 25.3 35 7 10.2 17.1 25.5 22.4 34 5.2 8.5 12 20.7 15 27 3.1 6.3 7.1 15.8 9 21 2 5.2 5.4 16.5 7.6 25 2.3 8.5 5.2 22 6.6 30 1.3 8 3.1 20.8 4 28.5 0.9 7.7 2.9 23.9 4.6 36l2.9 22c-0.8-32.5-1.7-49-2.6-57.5-0.8-8.5-2.3-21.4-3.4-28.5-1.1-7.1-3-17.7-4.1-23.5-1.2-5.8-3.8-16.4-5.9-23.5-2.1-7.1-5.7-17.6-7.9-23.3-2.3-5.6-5.7-13.5-7.7-17.5-2-3.9-7.1-13.1-11.4-20.2-4.3-7.1-9.9-15.7-12.4-19-2.5-3.3-7-9.1-10-13-3.1-3.9-8.2-11.3-11.4-16.5-3.2-5.2-6.2-11-6.5-12.8-0.4-1.7-1.2-3.2-1.7-3.2-0.5 0-1-0.7-1-1.5 0-0.8-0.9-1.7-2-2-1.2-0.3-1.8-1.1-1.5-2 0.3-0.9-0.3-1.7-1.5-2-1.4-0.4-1.8-1-1.2-2.1 0.5-1.1 0.1-1.7-1.5-2-1.7-0.3-2.1-0.8-1.5-2 0.5-1.1 0.1-1.7-1.6-2.2-1.3-0.4-2.1-1.2-1.7-2 0.3-0.6-0.4-1.6-1.5-2.2-1.1-0.6-2-1.7-2-2.5 0-0.8-0.9-1.9-2-2.5-1.1-0.6-2-1.4-2-2 0-0.6-2.9-4-6.5-7.8-3.6-3.7-6.5-7.4-6.6-8.2 0-0.8-4.6-6.7-10.2-13-5.6-6.3-17.4-18.7-26.2-27.6-8.8-8.8-21.7-21-28.6-27-6.9-6-18-15.2-24.8-20.4-6.7-5.2-17.5-13.2-23.9-17.7-6.4-4.5-17.1-11.5-23.7-15.6-6.6-4.2-17-10.3-23-13.7-6-3.4-18.2-9.7-27-14.1-8.8-4.3-16.7-7.8-17.5-7.8-0.8 0-0.2 0.7 1.5 1.5 1.9 1 2.6 1.9 2 2.5-0.6 0.6-5.3-0.9-13-4.2-6.6-2.8-17.8-7.2-25-9.9-7.2-2.6-20-7-28.5-9.8-8.5-2.8-24.3-7.3-35-10.1-10.7-2.7-26.7-6.4-35.5-8.2-10.4-2.1-15.3-3.5-14-4 1.5-0.5 0.8-0.8-2.6-1.3-2.6-0.3-6.2-0.5-8-0.4-1.9 0.1-7.2-0.5-11.9-1.2-4.7-0.7-18.2-1.4-30-1.5-11.8-0.2-28.7 0.1-37.5 0.6-8.8 0.4-24.3 1.6-34.5 2.5zm-64 20.4c-6.9 0.6-23.1 2.4-36 4.1-12.9 1.6-30.8 4.1-39.7 5.7-8.9 1.5-16.1 2.8-16 3 0.1 0.1 11.7-0.9 25.7-2.2 14-1.4 35-3.2 46.5-4.1 11.5-0.8 33.8-2 49.5-2.6 20.9-0.8 35.9-0.8 56 0 15.1 0.6 35.6 1.8 45.5 2.7 9.9 0.8 27.2 3.1 38.5 5 11.3 1.9 22.3 3.7 24.5 4 2.2 0.2-3.9-1.4-13.5-3.6-9.6-2.1-26.7-5.3-38-7-11.3-1.6-26.8-3.7-34.5-4.5-7.7-0.8-21.4-1.7-30.5-2-9.1-0.3-19-0.7-22-0.8-3-0.2-14 0-24.5 0.4-10.5 0.4-24.6 1.2-31.5 1.9zm218.5 27.5c6.6 1.4 19.4 4.4 28.5 6.6 9.1 2.2 16.7 3.9 17 3.9 0.3 0-0.4-0.6-1.5-1.4-1.1-0.8-5.4-2.3-9.5-3.4-4.1-1-8.8-2.7-10.5-3.7-1.7-1-3.8-1.5-5-1.2-1.1 0.4-4.7 0-8-0.8-3.3-0.7-15.7-3-27.5-4.9-11.8-2-22.6-3.6-24-3.5-1.4 0 4.5 1.3 13 2.9 8.5 1.5 20.9 4 27.5 5.5zm-346 14.9c-10.5 2.4-22 5.3-25.8 6.3-3.7 1-6.7 2.2-6.7 2.8 0 0.6 1.9 0.7 5.2 0.3 2.9-0.3 5.5-1.1 5.8-1.6 0.3-0.5 2.5-1.4 5-2.1 2.5-0.7 13.7-3.5 25-6.2 11.3-2.7 25.7-6 32-7.3 6.3-1.3 10.2-2.4 8.5-2.4-1.7 0-9.1 1.3-16.5 2.8-7.4 1.6-22 4.9-32.5 7.4zm722.3 139.3c8.2 11.5 20.9 29.6 28.3 40.3 7.5 10.7 19 27.8 25.6 38 6.6 10.2 14.5 23 17.6 28.5 3 5.5 8.2 16.1 11.5 23.5 3.3 7.4 8.2 20.5 11.1 29 2.8 8.5 6.9 22.5 9.1 31 2.1 8.5 5.3 23.4 7.1 33 1.7 9.6 3.9 23.4 5 30.5 1.8 12.6 1.8 12.7 1.3 4-0.3-5-2.1-18.7-3.9-30.5-1.8-11.8-5-28.7-7-37.5-2-8.8-6.2-23.6-9.2-33-3.1-9.4-7.8-22.2-10.5-28.5-2.7-6.3-8-17.2-11.8-24.3-3.9-7-10.5-18.2-14.9-25-4.3-6.7-11.8-18.1-16.6-25.2-4.9-7.1-13.8-19.8-19.8-28-6-8.3-16.7-22.3-23.6-31.3-7-8.9-13-16.2-13.4-16.2-0.4 0-0.7 0.2-0.7 0.5 0 0.3 6.7 9.8 14.8 21.2zm116.1 271.6c-0.7 0.1-1.3 23-1.9 72.2-0.5 39.6-1.4 82.6-2 95.5-0.5 12.9-1.7 34.5-2.5 48-0.9 13.5-2 29.5-2.5 35.5-0.6 6-0.9 15.3-0.9 20.5l0.1 9.5c2.2-15.5 4.1-32.8 5.8-48.5 1.6-15.7 3.6-36.4 4.4-46 0.9-9.6 2.1-27.4 2.8-39.5 0.8-13.2 1.2-41.6 1.1-71-0.1-34.2-0.6-53.8-1.6-65-0.8-8.8-1.5-15-1.6-13.8 0 1.3-0.6 2.4-1.2 2.5z"/>
		<path id="Path 1" class="s1" d="m681.5 1082.5c20.9 0 29.7 0.1 19.5 0.2-10.2 0.2-27.3 0.2-38 0-10.7-0.1-2.4-0.2 18.5-0.2zm1045 0c23.7 0 33.5 0.1 22 0.2-11.5 0.2-30.9 0.2-43 0-12.1-0.1-2.7-0.2 21-0.2zm12 17.7c27.5 0 49.5 0.1 49 0.3-0.5 0.2-20.3 0.5-44 0.8-23.7 0.2-45.7 0.1-49-0.3-3.3-0.4 16.5-0.7 44-0.8z"/>
		<path id="Path 2" class="s2" d="m1601.5 1081.5c39 0 55.3 0.1 36 0.2-19.3 0.2-51.2 0.2-71 0-19.8-0.1-4-0.2 35-0.2zm-983.8 0.7c14.8 0.1 24.3 0.3 21.3 0.5-3 0.1-15.1 0.4-26.8 0.5-11.6 0.2-21.2 0-21.2-0.4 0-0.5 12-0.7 26.7-0.6zm1177.8 0.2c14.8 0 21.2 0.2 14 0.3-7.2 0.2-19.3 0.2-27 0-7.7-0.1-1.8-0.3 13-0.3zm-1337 4c16.5 0 23.5 0.2 15.5 0.3-8 0.2-21.5 0.2-30 0-8.5-0.1-2-0.3 14.5-0.3zm91 0.1c19.3 0 26.9 0.1 17 0.2-9.9 0.2-25.6 0.2-35 0-9.4-0.1-1.3-0.3 18-0.2zm1015.5 6c42.1 0 59.2 0.1 38 0.2-21.2 0.2-55.6 0.2-76.5 0-20.9-0.1-3.6-0.2 38.5-0.2zm-220 5.9c16.8 0 23.5 0.2 15 0.3-8.5 0.2-22.3 0.2-30.5 0-8.3-0.1-1.3-0.3 15.5-0.3zm250.5 1.2c2.8 0.2 12.7 0.5 39 0.7l-17 0.9c-9.7 0.6-23.2 0.6-46-0.7l9.5-0.6c5.2-0.3 11.8-0.5 14.5-0.3zm-62.5 0.8c13.5 0 18.9 0.2 12 0.3-6.9 0.2-17.9 0.2-24.5 0-6.6-0.1-1-0.3 12.5-0.3zm145-0.2c5.2 0 12.2 0.4 15.5 0.8 4.9 0.6 3.8 0.7-6.5 0.7-6.9 0.1-13.8-0.3-15.5-0.7q-3-0.8 6.5-0.8z"/>
		<path id="Path 3" class="s1" d="m1289 88.1c9.6 0 20 0.4 23 0.8 3 0.4-4.6 0.5-17 0.3-12.4-0.3-22.7-0.6-23-0.9-0.3-0.2 7.4-0.3 17-0.2zm-259 38.1c1.4 0 4.8 0.3 12.5 1.3l-9.8 2.3c-5.3 1.2-10.7 2.2-11.9 2.2-1.9 0-2-0.2-0.8-1 1.2-0.8 1.2-1-0.5-1.1q-2.1-0.1-0.5-0.6c0.8-0.2 2.4-0.8 3.5-1.3 1.1-0.5 2.7-1.1 3.5-1.3 0.8-0.3 2.6-0.5 4-0.5z"/>
		<path id="Path 4" class="s2" d="m1282.5 88.8c12.1 0.3 22.2 0.6 22.5 0.9 0.3 0.2-7.6 0.3-17.5 0.3-9.9-0.1-20-0.5-22.5-0.9-2.5-0.4 5.4-0.6 17.5-0.3zm620.2 494.2c0.2 8 0.2 21.3 0 29.5-0.1 8.3-0.3 1.7-0.3-14.5 0-16.2 0.2-23 0.3-15zm8 6c0.2 8 0.2 21.3 0 29.5-0.1 8.3-0.3 1.7-0.3-14.5 0-16.2 0.2-23 0.3-15z"/>
	</g>
</svg>