<svg version="1.2" xmlns="http://www.w3.org/2000/svg" viewBox="0 0 1010 887" width="1010" height="887">
	<title>dsn</title>
	<style>
		.s0 { fill: #30302f } 
		.s1 { opacity: .7;fill: #2f2f2f } 
		.s2 { fill: #fabd08 } 
		.s3 { fill: #34322b } 
	</style>
	<g id="Background">
		<path id="Path 0" fill-rule="evenodd" class="s0" d="m259 0.1c6.3-0.1 14.4 0.2 24.5 1.4l-11.5 0.7c-6.3 0.5-15.3 1.1-28.5 2.3l9.5 0.8c5.2 0.4 19.6 0.7 32 0.7 12.4 0 31.5 0.5 42.5 1 11 0.5 25.4 1.5 32 2 8.3 0.8 12.4 0.8 13.3 0 0.8-0.7 4.6-0.5 12.6 0.8 6.3 0.9 10.9 2 10.3 2.4-0.7 0.4-1 0.9-0.7 1.1 0.3 0.2 12.4 2.8 27 5.6 14.6 2.9 26.7 5.4 27 5.6 0.3 0.3-0.1 1.1-0.8 2-1 1.3-0.7 1.7 1.8 3 1.6 0.8 12.9 4 25 7 12.1 3 22.7 5.5 23.5 5.5 1.3 0 1.5 2.4 1.5 15.3 0 8.3 0.3 18.9 0.8 23.5 0.6 7.6 0.9 8.2 5.2 8.2v-25.5c0-19.2-0.3-25.5-1.2-25.5-0.9 0-0.9-0.3 0-1.2 0.6-0.8 1.8-1 2.7-0.5 1.3 0.6 1.4 3.8 0 52.7h502.5v798l-370.3-0.3c-203.6-0.1-370.8-0.5-371.4-1-1.1-0.6-1.1-1-0.1-2.2 1.1-1.4 0.6-1.6-4.2-1.6-3.8 0.1-5-0.2-4-0.9 0.8-0.5 4.3-1.2 7.7-1.5 4.1-0.3 6.3-0.9 6.3-1.8 0-0.9-3-0.7-12.8 1-7 1.1-18.6 2.9-25.7 3.9-8.8 1.2-19.8 1.8-34 1.8-17.3 0.1-22.1-0.2-27.5-1.7-3.6-1-8.1-2.6-10-3.5-1.9-0.9-4.9-3.2-6.7-5-2-1.9-3.6-4.6-4-7-0.3-2 0-10.5 0.7-18.7 0.7-8.3 1.5-23.5 1.7-34 0.2-10.5 0-20.1-0.5-21.5-0.9-2.3-1-2.2-1.6 1.7-0.3 2.4-1.1 4.3-1.6 4.3-0.6 0-1-3.8-1-9.5 0-5.2-0.5-17.5-1.1-27.3-0.5-9.7-1.4-18.6-2-19.7-0.5-1.1-2.2-11.2-3.9-22.5-1.6-11.3-3.6-23.6-4.5-27.5q-1.4-7-1-2.5c0.3 2.5 1.8 13.6 3.5 24.7 1.6 11.2 3.9 29.1 5 39.8 1.1 10.7 2.3 27.3 2.6 36.8 0.4 11.7 0.3 18.2-0.5 20.2-0.6 1.6-1.4 2.8-1.6 2.5-0.3-0.3-1-9-1.5-19.5-0.6-10.5-1.7-25.5-2.5-33.5-0.9-8-2.7-21.9-4.1-31-1.4-9.1-4.3-25.3-6.4-36-2.1-10.7-6.1-29-8.9-40.5-2.8-11.5-8.6-33.8-12.8-49.5-4.2-15.7-7.8-28-8-27.5-0.2 0.5 3.7 16.1 8.6 34.5 4.9 18.4 10.9 42.5 13.5 53.5 2.5 11 5.9 26.8 7.5 35 1.6 8.3 3.9 21.3 5 29 1.2 7.7 2.8 19.9 3.7 27 0.9 7.1 1.9 25 2.9 66.3l-3 0.7c-1.7 0.4-3.4 0.3-3.8-0.2-0.4-0.4-1.2-9.8-1.7-20.8-0.6-11-1.7-26.7-2.5-35-0.9-8.2-2.7-22.9-4.1-32.5-1.4-9.6-4.5-27.4-6.9-39.5-2.4-12.1-6.4-30.1-8.9-40-2.4-9.9-6.3-24.7-8.6-33-2.3-8.2-6.2-21.7-8.7-30-2.4-8.2-7.5-24.7-11.3-36.5-3.7-11.8-7.6-25.1-8.5-29.5-1-4.4-6.9-26.9-13.1-50-6.3-23.1-12.4-46.6-13.7-52.2-1.2-5.6-2.3-10.1-2.5-10-0.1 0.1 0.5 4.9 1.4 10.7 0.9 5.8 3.8 18.4 6.5 28 2.6 9.6 5.4 20.5 6.3 24.3 1.2 4.8 1.3 7.2 0.5 8.5-0.8 1.3 1 8.9 7.6 33.2 4.8 17.3 10.9 40.3 13.6 51 2.7 10.7 4.7 20.2 4.4 21-0.3 0.8-0.7 1.3-1 1-0.2-0.3-7.7-25-16.5-55-8.8-30-19.2-66-23.1-80-3.9-14-8.3-30.7-9.9-37-1.5-6.3-3.1-12.3-3.4-13.2-0.3-1-1.1-1.8-1.6-1.8-0.6 0-1.3 0.8-1.7 1.8-0.3 0.9-0.8 7.1-0.9 13.7-0.2 6.6-0.6 12.9-1 14-0.4 1.1-0.2 4.3 0.4 7 0.6 2.8 0.7 5.3 0.4 5.7-0.4 0.5-2.4-5.2-4.4-12.5-2-7.2-4.1-14.8-4.7-16.7-0.5-1.9-1-2.7-1-1.7-0.1 0.9 1.7 9.7 4 19.5 2.2 9.7 6.5 27.6 9.5 39.7 3.5 14.1 5.1 22.4 4.5 23-0.6 0.6-1.8-2-3.5-7.5-1.3-4.7-4.3-14.8-6.5-22.5-2.2-7.7-5.6-20.3-7.5-28-1.9-7.7-5-21.6-7-31-1.9-9.4-4.6-24.2-6-33-1.4-8.8-3.3-22.7-4.3-31-1.2-10.9-1.7-23.2-1.7-45-0.1-19.1 0.4-33.4 1.2-39.5 0.7-5.2 2.2-14.7 3.3-21 1.1-6.3 3.5-17.5 5.4-24.7 1.9-7.3 5.5-18.6 8-25 2.4-6.5 6.4-16.1 8.8-21.3 2.4-5.2 7-14 10.2-19.5 3.2-5.5 8.8-14.5 12.6-20 3.7-5.5 9.5-13.3 12.8-17.2 3.4-4 6.1-7.9 6.1-8.5 0-0.7 0.8-2.1 1.8-3.1 0.9-1 2.3-1.8 2.9-1.7 0.7 0 1.9-1.5 2.7-3.2 0.7-1.8 3.5-5.2 6.2-7.5 2.7-2.4 5.8-5.1 6.9-6.2 1.1-1.1 3.6-3.8 5.5-6.1 1.9-2.3 5.3-5.6 7.6-7.4 2.3-1.7 7.7-6.2 12-9.9 4.3-3.8 11.9-9.9 16.9-13.6 4.9-3.8 13.7-10 19.5-13.8 5.8-3.9 14.1-8.9 18.5-11.1 4.4-2.2 12.1-5.4 17-7.2 4.9-1.7 13.7-4.2 19.5-5.5 5.8-1.3 15.4-2.9 21.5-3.6 6.1-0.6 13-1.5 15.5-1.9 2.5-0.4 9.7-0.8 16-0.9zm-108.5 34.6c-6.6 4.4-16.2 10.9-21.3 14.6-5 3.7-9 6.9-8.7 7.2 0.3 0.3 6.5-3.7 13.7-8.8 7.3-5.1 17.8-12.1 23.3-15.7 5.5-3.5 14.1-8.3 19-10.6 4.9-2.4 8.3-4.3 7.5-4.4-0.8 0-6 2.2-11.5 4.9-5.5 2.7-15.4 8.5-22 12.8zm59.5-1.7c-5.8 1.1-13.4 2.9-17 4.1-3.6 1.2-9.4 3.4-13 5.1-3.6 1.6-9.2 4.5-12.5 6.5-3.3 2-7.9 5.1-10.3 7-2.3 1.8-4.9 3.3-5.7 3.3-0.8 0-1.7 0.7-2 1.5-0.3 0.8-1.2 1.5-2 1.5-0.8 0-1.4 0.5-1.3 1 0.2 0.6-0.6 1.4-1.7 1.7-1.1 0.4-3.1 1.7-4.5 3-1.4 1.3-4.1 3.1-6 4-1.9 0.9-6.7 4.1-10.5 7.2-3.9 3-9.5 7.8-12.5 10.7-3 2.8-7.7 7.1-10.3 9.5-2.6 2.4-4.7 4.9-4.7 5.4 0.1 0.6-2 2.7-4.5 4.8-2.5 2-4.5 4.4-4.5 5.2 0 0.8-1.1 2.2-2.5 3-1.4 0.8-2.5 2.1-2.5 2.8 0.1 0.6-2.1 3.5-4.7 6.2-2.7 2.8-6.7 7.8-9.1 11.3-2.3 3.4-4.2 6.5-4.2 7 0 0.4-2.1 4.3-4.7 8.7-2.6 4.4-5 8.2-5.3 8.5-0.3 0.3-1.9 3.4-3.4 7-1.6 3.6-3.9 8.4-5.2 10.8-1.3 2.3-3.4 6.8-4.5 10-1.2 3.1-2.3 7-2.4 8.7-0.1 1.7-1.4 6.9-2.9 11.8-1.4 4.8-3.1 8.5-3.6 8.2-0.6-0.3-1.2 1.1-1.5 3-0.3 1.9-0.3 3.9 0 4.5 0.3 0.6 0.1 1.1-0.5 1.3-0.5 0.1-1.6 3.4-2.4 7.2-0.8 3.9-2 11.9-2.5 18-0.6 6.1-1.1 16.6-1 23.5 0 6.9 0.6 19.7 1.3 28.5 0.7 8.8 1.5 15.3 1.9 14.5 0.3-0.8 0.8-12.5 1.1-26 0.3-13.5 1.2-30.6 2.1-38 0.9-7.4 2.9-20.1 4.5-28.2 1.7-8.2 4.8-20.3 7.1-27 2.2-6.8 7-18.4 10.5-25.8 3.6-7.4 9.5-18 13.1-23.5 3.6-5.5 10-14.5 14.2-20 4.1-5.5 15.6-18.1 25.6-28 9.9-9.9 22.9-21.9 29-26.5 6-4.7 17-12.6 24.5-17.5 7.4-5 16.6-10.7 20.5-12.7 3.8-2 11.1-5 16-6.6 4.9-1.7 13.1-3.8 18-4.7 4.9-0.9 15.5-2.5 23.5-3.5 9.8-1.2 12.5-1.8 8.5-1.7-3.3 0-10.3 0.4-15.5 0.8-5.2 0.5-14.2 1.8-20 2.9zm-205.5 236.5c-0.8 7.1-1.5 20.2-1.5 29 0 8.8 0.7 23.2 1.5 32 0.9 8.8 2 18.3 2.5 21 0.9 4.9 0.9 4.9 0.5-1.5-0.3-3.6-0.9-11-1.5-16.5-0.5-5.5-1-20.6-1-33.5 0-12.9 0.5-28.4 1.1-34.3 0.7-6 0.9-11.2 0.5-11.5-0.4-0.4-0.7 0-0.6 0.8 0 0.8-0.7 7.4-1.5 14.5zm30 39.5c0 19 0.5 27.8 2 39.2 1.1 8.1 2.1 14.6 2.3 14.5 0.1-0.1-0.3-6.5-1-14.2-0.7-7.7-1.3-26.1-1.3-41 0-17.3 0.5-30.9 1.4-37.8 0.7-6 1.2-11 1-11.2-0.2-0.2-1.3 5.5-2.4 12.8-1.6 10.4-2 18.3-2 37.7zm-27.1-14c-0.5 11-0.2 21.1 1 34.5 1 10.4 2.6 23.7 3.6 29.5 1.1 5.9 1.7 8.1 1.5 5-0.3-3-1.3-11.6-2.2-19-1.3-10.2-1.7-21.3-1.8-45.3 0-17.4-0.1-31.7-0.1-31.7-0.1 0-0.4 2.6-0.8 5.7-0.3 3.2-0.9 12.8-1.2 21.3z"/>
		<path id="Path 1" class="s1" d="m298 1.9c8 0.1 16.1 0.7 18 1.2 2.7 0.7 2 0.8-3 0.4-3.6-0.3-16.6-0.6-29-0.7-17.4-0.2-20-0.3-11.5-0.7 6.1-0.4 17.5-0.4 25.5-0.2zm212.5 34.1c0.3 0 0.5 11.9 0.5 26.5 0 22.9-0.2 26.5-1.5 26.5-1.3 0-1.5-2.8-1.1-39.5l0.6 14c0.6 14 0.6 14 0.8-6.8 0.1-11.4 0.4-20.7 0.7-20.7zm-9.8 15c0.2 4.7 0.2 12.8 0 18-0.1 5.2-0.3 1.4-0.3-8.5 0-9.9 0.2-14.2 0.3-9.5zm-345 753c0.2 5.8 0.2 14.8 0 20-0.1 5.2-0.3 0.5-0.3-10.5 0-11 0.2-15.3 0.3-9.5z"/>
		<path id="Path 2" class="s0" d="m31.7 448c1.3 0 2.7 3.9 6.9 19.3 2.9 10.5 7.1 27.5 9.4 37.7 2.3 10.2 4.7 19.6 5.3 21 1 2.4 1.1 2.4 1.7-1.5 0.5-3.7 0.7-3.3 1.8 4.5 0.7 4.7 1.1 8.7 0.8 9-0.3 0.3-0.7-1-1-2.8-0.3-1.7-1.1-3.2-1.6-3.2-0.6 0-0.8 1.9-0.4 4.7 0.3 2.7 0.4 4.6 0.1 4.3-0.3-0.3-3.4-11.8-7-25.5-3.6-13.8-8.1-31.2-9.9-38.8-1.8-7.5-3.4-14.7-3.6-16-0.1-1.2-1.1-4.6-2.2-7.5-1.8-4.8-1.8-5.2-0.3-5.2z"/>
		<path id="Path 3" class="s2" d="m212.5 204.7c1.7 0.3 4.2 1.2 5.8 1.9 1.5 0.8 3.7 2.9 4.9 4.7 1.4 2 2.4 5.2 2.7 8.7 0.2 3-0.1 7.1-0.7 9-0.6 1.9-2.7 5-4.6 6.8-2 1.7-5.3 3.6-7.4 4.2-2.4 0.6-5 0.6-7.5 0-2-0.6-4.9-2.1-6.5-3.3-1.5-1.3-3.3-3.9-4.1-5.8-0.9-2.2-1.2-5.3-0.9-8.9 0.3-3 1.4-7.2 2.4-9.3 1-2.2 3-4.6 4.4-5.5 1.4-0.9 3.8-1.9 5.5-2.3 1.7-0.4 4.3-0.5 6-0.2zm573.8 9.8c2 0.3 5.1 1.2 6.7 2 1.7 0.8 3.6 2.6 4.3 4 0.6 1.4 1.8 2.5 2.5 2.5 0.6 0 2.5 0.8 4.2 1.8 1.6 0.9 3.6 2.9 4.5 4.5 0.8 1.5 1.5 4.7 1.5 7.2 0 2.5-0.4 5.3-1 6.3-0.6 1.2-0.3 2.8 1.1 5.7 1.9 3.6 1.9 4.5 0.8 9.5-1.2 5.3-2.2 6.4-22.3 27.3-14.7 15.1-22.2 22.2-24.8 23.2-2.1 0.8-5.9 1.5-8.5 1.5-2.7 0-6.6-0.9-8.8-1.9-2.2-1-5.5-3.4-7.2-5.4-1.8-2.1-3.3-4.1-3.3-4.7 0-0.5-1.1-1-2.5-1-1.4 0-3.8-0.7-5.5-1.5-1.6-0.8-3.9-2.6-5-4-1.1-1.4-2.2-2.5-2.5-2.5-0.3 0-1 2.4-1.6 5.3-0.7 2.8-0.9 7.7-0.5 10.7 0.3 3 0.8 6.5 1.1 7.8 0.4 1.6-0.1 2.6-1.7 3.6-1.3 0.7-3.5 1.6-5 2-2.5 0.5-2.9 0.2-4.3-3.4-0.8-2.2-1.5-6.2-1.5-9 0-2.7 0.6-7.4 1.2-10.2 0.9-3.8 2.3-6.4 5-9 2.1-2.1 3.6-4.2 3.3-4.8-0.3-0.5 0-1.2 0.5-1.5 0.6-0.3 0.9-3.2 0.8-6.5-0.3-5.5-0.5-6-2.5-6-1.7 0-2.8-1.1-4.3-4.2-1.3-2.9-2-6.4-2-10.8 0-4.1 0.7-8 1.8-10.5 1-2.2 3.6-5.8 5.8-7.9 2.1-2.2 6.2-5 8.9-6.3 3.4-1.6 9-2.7 18-3.8 10.4-1.2 15.6-2.4 26-6 9.9-3.5 13.9-4.5 16.8-4zm84.2 171.2c1.7 0.3 4.2 1.2 5.8 1.9 1.5 0.8 3.7 2.9 4.9 4.7 1.4 2 2.4 5.2 2.7 8.7 0.2 3-0.1 7.1-0.7 9-0.6 1.9-2.7 5-4.6 6.8-2 1.7-5.3 3.6-7.3 4.2-2.5 0.6-5.1 0.6-7.5 0-2.1-0.6-5-2.1-6.5-3.3-1.6-1.3-3.4-3.9-4.2-5.8-0.9-2.2-1.2-5.3-0.9-8.9 0.3-3 1.4-7.2 2.4-9.3 1-2.2 3-4.6 4.4-5.5 1.4-0.9 3.9-1.9 5.5-2.3 1.7-0.4 4.4-0.5 6-0.2zm-703.2 18.5c2 0.3 2.2 0.9 2.2 6.3 0 3.3-0.3 6.9-0.5 8-0.4 1.7 0 2 2.3 1.8 1.8-0.2 2.9 0.3 3.3 1.5 0.4 1-0.5 3.3-2.2 5.7-1.6 2.2-3.3 4.3-3.9 4.6-0.6 0.4-0.2 0.9 0.8 1.3 1.2 0.4 1.5 1.2 1.1 2.9-0.4 1.2-1.2 2.5-1.8 2.8-0.8 0.5-0.7 0.8 0.2 1.3 0.6 0.3 1.2 1.7 1.2 3.1 0 1.9 0.6 2.6 2.5 3 1.4 0.3 2.5 1.1 2.5 1.8 0 0.6-0.5 1.7-1.2 2.3-1 0.9-0.4 1.6 2.7 3 2.7 1.3 4.1 2.6 4.3 4.2 0.1 1.7-0.5 2.4-3 3.2-1.8 0.6-4.1 1-5 1-1.4 0-1.8 0.8-1.8 3.5 0 2.7-0.4 3.5-1.7 3.5-1 0.1-3-0.8-4.5-2-2.6-1.9-2.9-1.9-3.7-0.2-0.8 1.5-1.2 1.6-3.6 0.2-1.5-0.8-4.5-3-6.6-4.7-2.2-1.8-4-3.2-4.2-3-0.2 0.1-1 1.8-1.7 3.7-0.8 1.9-3.8 7.9-6.7 13.3-2.9 5.3-5.2 9.9-5 10.1 0.1 0.3 1.3 0.9 2.7 1.4 2 0.7 3.6 0.2 8-2.5 3-1.8 8.4-4.3 12-5.4 3.6-1.1 7.1-1.8 7.8-1.5 0.6 0.3 1.2 1.5 1.2 2.6 0 1.1-0.9 2.6-2 3.3-1.1 0.6-2 1.5-2 2 0 0.4 1.2 0.9 2.8 1.2 1.5 0.2 3.3 1.1 4 2 0.6 0.8 1 2.2 0.7 3-0.3 0.8-1.2 1.5-2 1.5-0.8 0-1.5 0.3-1.5 0.8-0.1 0.4 0.9 1.6 2 2.7 1.1 1.1 2.5 3.6 3.1 5.5 0.6 1.9 0.8 4.1 0.5 4.8-0.3 0.6-1.3 1.2-2.1 1.2q-1.5 0-0.9 1.8c0.4 0.9 0.8 4 1.1 6.7 0.2 2.8-0.1 5.7-0.6 6.5-0.9 1.3-1.4 1.3-4.1-0.2-2.7-1.6-3.1-1.7-4.2-0.2-0.7 0.8-2.2 1.4-3.2 1.2-1.1-0.2-2.1-0.8-2.3-1.3-0.1-0.5 0.7-1 2-1 1.7 0 2.3-0.6 2.5-2.7 0.1-1.7 0.7-2.7 1.5-2.5 0.6 0.2 1.7 1.3 2.2 2.5 0.6 1.2 1.6 2.2 2.3 2.2 0.6 0 1.4-0.6 1.7-1.2 0.3-0.7-0.1-3.5-0.8-6.3-0.8-2.7-1.6-5.7-1.8-6.5-0.3-1.1 0.3-1.4 2.4-1.2 2.6 0.2 2.7 0.1 1.7-3-0.5-1.8-2.7-4.9-4.9-6.8-2.2-1.9-3.8-3.8-3.4-4.2 0.3-0.5 2.1-0.8 4-0.8 1.9 0 3.1-0.4 2.8-1-0.3-0.5-2.2-1.3-4.2-1.6-2.1-0.3-4.5-0.8-5.3-1-1.1-0.3-0.6-1.3 5.5-7.5l-3 0.7c-1.6 0.3-6.3 1.9-10.2 3.5-4 1.6-7.3 3.2-7.3 3.7 0 0.4 1.7 1.7 3.8 2.8 2 1.2 5.2 3.3 7 4.8 1.7 1.4 3 3.1 2.7 3.6-0.3 0.6-4.2-1-8.7-3.5-4.6-2.4-8.6-4.5-9-4.5-0.5 0-2.4 3.3-4.3 7.3-1.9 3.9-3.5 8.4-3.5 10 0 1.5-0.6 2.7-1.2 2.7-0.9 0-1.1-1.2-0.7-4.2 0.3-2.4 1.9-7.1 3.5-10.6 2.7-5.8 2.8-6.4 1.2-7.2-1.5-0.8-2.5 0.2-6.2 6.3-2.5 3.9-5.8 8.6-7.5 10.2-2.1 2-3.1 2.5-3.1 1.5 0-0.8 2.7-5.9 12-21l-3-7-5.7 4.9c-3.2 2.6-6.5 5-7.3 5.3-0.8 0.3-2.3 0.1-3.2-0.3-1-0.5-1.8-1.8-1.8-2.9 0-1.5-0.4-1.8-1.7-1.3-1 0.3-3.1 0.7-4.8 0.7-2.8 0.1-3-0.1-3-3.4 0.1-2.3-0.5-3.9-1.7-4.7-1-0.7-1.8-2-1.8-2.8 0-0.8 1.2-2.4 5.5-5.3l-3.7-2.1c-2.8-1.6-3.8-2.8-3.8-4.6 0-1.6 0.8-2.9 2.3-3.6 1.2-0.7 2.3-1.2 2.5-1.3 0.1 0-0.6-2-1.8-4.3-1.6-3.5-1.8-4.6-0.7-5.8 0.6-0.9 1.8-1.6 2.5-1.5 0.6 0 2.4 1.1 4 2.5 1.5 1.3 3 2.1 3.5 1.7 0.4-0.4 0.7-1.5 0.7-2.4 0-1 0.5-2 1-2.3 0.6-0.3 1.8-0.3 2.8-0.1 0.9 0.3 2.6 2.2 5.7 8.1l0.2-3c0.2-1.6 0.8-3.6 1.5-4.3 0.7-0.6 2.1-1 3.1-0.7 0.9 0.3 1.9 1.6 2.2 3 0.4 2.1 0.8 2.3 2.5 1.5 1.6-0.8 2.3-0.6 3.5 1.3 0.8 1.2 1.5 3.2 1.5 4.5 0 1.8 0.5 2.2 2.8 2.2 1.5-0.1 3.3 0.6 4 1.5 0.8 1 0.9 2.3 0.3 4.3-0.5 1.5-1.6 4.4-2.5 6.5-1.4 3.2-1.4 3.7-0.1 3.7 0.9 0 1.5-0.9 1.5-2.5 0-1.4 0.5-2.5 1-2.5 0.6 0 0.8-0.3 0.5-0.7-0.2-0.5 0.5-1.9 1.6-3.3 1.2-1.4 2.7-3.7 4.9-8h-4.5c-2.7 0-5.1-0.6-6-1.5-0.8-0.8-1.5-2.4-1.5-3.5 0-1.1-1-2.4-2.2-2.9-1.3-0.5-3.2-1.8-4.3-3-1.3-1.3-1.7-2.7-1.2-3.6q0.7-1.5-1.3-2.5c-1.1-0.5-2.4-2.3-3-4q-1-3 0-3.5c0.6-0.3 2.2-0.4 3.7-0.2 2.2 0.1 2.8-0.3 3.3-2.3 0.3-1.4 1.4-2.6 2.5-2.8 1.1-0.2 3.9 1.3 6.3 3.3 2.3 1.9 4.2 3.1 4.2 2.5 0-0.5 0.9-0.8 2-0.5 1.8 0.5 2 0.1 1.8-4.7-0.3-4.8-0.1-5.3 2.5-6.5 2.4-1.2 2.7-1.8 2.7-6.5-0.1-4.1 0.4-5.7 2-7 1.9-1.7 2.1-1.7 4 1 1.2 1.5 2.1 3 2 3.5 0 0.4 0.3 0.7 0.8 0.7 0.4 0 2.4-2.3 4.5-5 2.9-3.8 4.4-5 6-4.8zm699.9 203.8c1.7 1.2 3 2.6 2.9 3.1 0 0.5 0.4 0.9 0.9 0.9 0.6 0 3.4 2.4 6.3 5.3 2.8 3 7 6.3 9.2 7.4 2.2 1.2 11.4 4 20.5 6.3 9.1 2.3 18.1 5 20 6 1.9 1 4.3 2.6 5.2 3.6 0.9 1.1 2.4 3.6 3.2 5.7 0.9 2 1.6 6.3 1.6 9.5 0 3.8-0.9 7.7-2.5 11.7-1.4 3.3-4.5 8.4-6.8 11.4-2.3 3-5.9 6.6-8 8-3.1 2.2-3.7 3-3.2 5.4 0.4 2 0.1 2.7-1 2.7-0.8 0-1.5 0.9-1.5 2 0 1.1-0.4 2.2-1 2.5-0.5 0.3-1.2-0.2-1.5-1-0.3-0.8-0.9-1.5-1.5-1.5-0.5 0-1 1.7-1 3.8 0 2-0.7 4.6-1.5 5.7-1.5 1.9-1.6 1.5-1.3-5.2 0.2-3.9 0-6.9-0.4-6.7-0.5 0.2-2.9 0.7-5.5 1.2-2.7 0.4-8.2 0.7-12.3 0.6-5.8 0-8.7-0.6-13-2.6-3-1.3-7-4-8.9-5.9-1.8-1.9-4.3-5.4-5.4-7.9-1.3-2.9-2-6.6-1.9-10.5 0-4.7 1-8.5 4.6-17.7 2.5-6.5 5.1-14.2 5.7-17 0.6-3 0.8-7.5 0.4-10.3-0.3-2.7-1.7-7.7-3.1-11-1.3-3.3-2.3-6.4-2.3-6.8 0.1-0.5 1.5 0.1 3.1 1.3zm-457.7 127c3.3 0 8 0.7 10.5 1.5 2.5 0.9 8.8 4.5 14 8 7.3 4.9 12 7.2 20.5 10 6.1 1.9 13.4 5.1 16.3 7 2.9 2 6.5 5.5 8.2 8.3 1.7 2.6 3.5 6.5 4.1 8.7 0.6 2.2 1 7.9 0.8 12.6-0.4 7.8-0.8 9.4-5.1 18.2-3.5 7-6.4 11.3-10.6 15.5-3.1 3.1-8.4 7.1-11.7 8.9-3.3 1.8-9.6 4.1-14 5.3-4.6 1.1-11.2 2-15.5 2-4.3 0-10.9-0.9-15.5-2-4.4-1.2-10.2-3.3-13-4.8-2.7-1.5-8-5.6-11.8-9.2-4.6-4.4-7.9-8.6-10.1-13-1.8-3.6-3.9-9.2-4.6-12.5-0.8-3.8-1.1-10-0.7-17 0.3-7.1 1.2-13.3 2.5-17.5 1.1-3.6 4-9.4 6.4-13 2.4-3.5 6.6-8.1 9.3-10.2 2.8-2 7-4.4 9.5-5.2 2.5-0.8 7.2-1.5 10.5-1.6zm-186 3.7c1.7 0.3 4.2 1.2 5.8 1.9 1.5 0.8 3.7 2.9 4.9 4.7 1.4 2 2.4 5.2 2.7 8.7 0.2 3-0.1 7.1-0.7 9-0.6 1.9-2.7 5-4.6 6.8-2 1.7-5.3 3.6-7.3 4.2-2.5 0.6-5.1 0.6-7.5 0-2.1-0.6-5-2.1-6.5-3.3-1.6-1.3-3.4-3.9-4.2-5.8-0.9-2.2-1.2-5.3-0.9-8.9 0.3-3 1.4-7.2 2.4-9.3 1-2.2 3-4.6 4.4-5.5 1.4-0.9 3.9-1.9 5.5-2.3 1.7-0.4 4.4-0.5 6-0.2zm436 31c1.7 0.3 4.2 1.2 5.8 1.9 1.5 0.8 3.7 2.9 4.9 4.7 1.4 2 2.4 5.2 2.7 8.7 0.2 3-0.1 7.1-0.7 9-0.6 1.9-2.7 5-4.6 6.8-2 1.7-5.3 3.6-7.3 4.2-2.5 0.6-5.1 0.6-7.5 0-2.1-0.6-5-2.1-6.5-3.3-1.6-1.3-3.4-3.9-4.2-5.8-0.9-2.2-1.2-5.3-0.9-8.9 0.3-3 1.4-7.2 2.4-9.3 1-2.2 3-4.6 4.4-5.5 1.4-0.9 3.9-1.9 5.5-2.3 1.7-0.4 4.4-0.5 6-0.2zm162.5 62.3c0.4 0 0.2 1-0.4 2.3-0.5 1.2-1.1 4.9-1.1 8.2-0.1 3.3 0 5.4 0.2 4.8 0.1-0.7 0.8-1.1 1.3-0.8 0.6 0.3 2.1-1.9 3.4-4.7 1.4-2.9 2.7-6.1 3-7 0.3-1 1.1-1.8 1.6-1.8 0.6 0 1.5 1.1 2 2.5 0.7 1.8 0.6 3.4-0.5 6-0.9 2-3.9 5.4-7.2 8-3.2 2.4-5.9 4.3-6 4.2-0.1-0.1-0.4-4.1-0.5-8.8-0.3-7.4 0-9 1.6-10.8 1-1.2 2.2-2.1 2.6-2.1z"/>
		<path id="Path 4" class="s1" d="m40.9 277.5c0.5 1.1 1 10.7 1.2 21.3 0.2 10.7 0.2 19.5-0.1 19.7-0.3 0.2-0.8-4.7-1.2-10.8-0.5-6.2-0.8-15.9-0.7-21.7 0-6.3 0.3-9.7 0.8-8.5zm30.1 178.5c0.9 1.3 1 1.3 1.1 0 0-0.8 0.7 0.1 1.4 2 0.7 1.9 1.4 5.5 1.4 8 0.1 2.5 1 7.9 2.1 12 1.1 4.1 2 8.2 2 9 0 0.8-0.1 1.3-0.4 1-0.2-0.3-2.3-7.4-4.5-15.8-2.3-8.3-4.1-15.8-4.1-16.4q0-1.3 1 0.2z"/>
		<path id="Path 5" class="s3" d="m142.4 422c0.1 0 0.1 2.6 0.1 5.9 0 4.5-0.3 5.7-1.3 5.2-0.8-0.3-1.7 0-2 0.7-0.5 0.9-1.4 0.5-3.2-1.3-1.6-1.6-2.2-3-1.8-4 0.5-0.8 1.8-1.6 3-1.6 1.3-0.1 2.7 0 3.3 0.1 0.6 0.1 0.7-0.4 0.3-1.1-0.4-0.8-0.2-2 0.5-2.7 0.6-0.6 1.1-1.2 1.1-1.2zm-24.7 15c0.5 0.1 1.9 1.3 3.3 2.8 1.3 1.5 2.3 3.4 2.2 4.2-0.2 0.8 0.5 2.3 1.5 3.4 1 1 2.8 2.2 4 2.7 1.3 0.5 2.3 1.8 2.3 2.9 0 1.1 0.7 2.7 1.5 3.5 0.9 0.9 3.3 1.5 10.5 1.5l-1.4 2.8c-0.8 1.5-2.3 3.8-3.5 5.2-1.1 1.4-1.8 2.8-1.6 3.3 0.3 0.4 0.1 0.7-0.5 0.7-0.6 0-1 1.1-1 2.5 0 1.6-0.6 2.5-1.5 2.5-1.3 0-1.3-0.5 0.1-3.8 0.9-2 2-4.9 2.5-6.5 0.6-1.9 0.5-3.2-0.4-4.2-0.6-0.9-2.4-1.6-4-1.5-2.2 0-2.7-0.4-2.7-2.3 0-1.2-0.7-3.2-1.5-4.5-1.2-1.8-1.9-2-3.5-1.2-1.7 0.8-2.1 0.6-2.5-1.5-0.3-1.4-1.3-2.7-2.3-3-0.9-0.3-2.3 0.1-3 0.7-0.7 0.7-1.3 2.7-1.7 7.3l-2.3-4.3c-1.2-2.3-2.2-4.4-2.2-4.7 0-0.3 0.7-0.5 1.5-0.5 0.8 0 1.5-0.9 1.5-2 0-1.1 0.9-2.9 2-4 1.1-1.1 2.3-2 2.7-2zm809.7 244.7c0.6 0.2 1.2 1 1.1 1.8 0 0.8-0.3 1.5-0.8 1.5-0.4 0-0.9-0.6-1.1-1.2-0.2-0.7-0.2 1.2 0.1 4.2 0.4 4 0.2 5.8-0.8 6.7-0.8 0.7-2.4 1-3.7 0.7-1.2-0.2-2.2-1-2.2-1.6 0.1-1-0.2-1-1.5 0-1.3 1-1.6 0.8-2.1-1.5-0.5-2.1-0.2-3 1.2-3.8 1.1-0.5 3.4-2.3 5.3-4.1 1.8-1.7 3.8-3 4.5-2.7z"/>
		<path id="Path 6" fill-rule="evenodd" class="s0" d="m209.9 207c2.1 0 5.1 0.9 7.1 2.2 1.9 1.3 4.3 3.9 5.2 5.8 1 1.9 1.8 5.2 1.8 7.3 0 2-0.6 5.2-1.4 7-0.7 1.7-2.6 4.3-4.1 5.7-2 1.9-4 2.6-7.8 2.8-3.9 0.2-6-0.2-8.5-1.7-1.7-1.2-4-3.6-4.9-5.3-0.9-1.8-1.6-5.3-1.6-7.8 0-2.6 0.8-6 1.9-8 1.1-1.9 3.5-4.5 5.4-5.8 1.9-1.2 4.9-2.2 6.9-2.2zm573.6 10.5c1.6 0.3 3.9 0.5 5 0.5 1.1 0 2.9 0.6 4 1.4 1.9 1.3 1.8 1.5-1.8 3-2.1 0.9-4.5 1.3-5.5 0.9-1.2-0.5-1.5-0.4-1 0.5 0.5 0.7 0.2 1.2-0.7 1.2-0.8 0-1.8-0.1-2.1-0.3-0.4-0.1-1.1 0.8-1.5 2-0.6 1.4-3.6 3.7-7.7 5.8-3.7 1.8-6.3 3.4-5.7 3.4 0.5 0.1 6.7-2.2 13.7-4.9 7.1-2.8 14.5-5 16.5-5 2.3-0.1 4.9 0.7 6.5 2 1.6 1.1 3.3 3.7 4 5.8 0.9 3 0.8 4.5-0.5 8.2-0.9 2.5-3.2 6-5.1 7.8-2 1.7-7.1 5.2-11.4 7.6-4.2 2.5-8.6 5.4-9.7 6.6-1.2 1.2-1.5 2.1-0.8 2 0.7 0 4.6-1.9 8.5-4.2 4-2.4 8.6-4.9 10.3-5.7 1.6-0.8 3.3-1.3 3.7-1.3 0.5 0.1 1.1-0.6 1.5-1.5 0.4-1 1.8-2.9 5.2-6.8l0.5 4.8c0.5 3.5 0.1 5.7-1.3 8.5-1.1 2.1-6.7 7.9-12.8 13.2-6.3 5.6-14 13.8-18.6 19.5-4.8 6.2-9.3 10.9-12 12.5-3 1.8-5.6 2.4-9.2 2.4-3.1 0-6.6-0.9-9.3-2.2q-4.2-2.2-3.7-3.7c0.3-0.8 1.4-1.5 2.5-1.5 1.1 0 4-0.9 6.5-2 2.5-1.1 4.5-2.7 4.5-3.5 0-0.8 1.7-3.4 3.7-5.6 2.1-2.3 4.3-4.9 4.9-5.8 0.6-0.9 1.5-2.7 1.9-4.1 0.5-1.9-0.6-1.1-5.1 3.5-3.5 3.6-8.3 7.2-11.9 9-3.3 1.6-8.3 3.1-11 3.3-3.5 0.3-6.1-0.1-8.9-1.4-2.5-1.2-4.8-3.5-6.5-6.4-2.1-3.6-2.6-5.8-2.6-11 0.1-5 0.7-7.7 2.7-11.5 1.4-2.7 5-7.2 7.9-9.8 3-2.7 8.1-6.2 11.4-7.8 3.3-1.6 5.3-2.9 4.5-2.9-0.8 0-4.3 1.4-7.8 3-4.4 2.1-6.7 2.7-8 2.1-1.1-0.6-2-0.5-2.7 0.4-0.6 0.8-2.2 1.6-3.8 1.9-2.1 0.5-2.8 0.2-3.2-1.4-0.3-1.1-1-2-1.5-2-0.6 0-1.3 1-1.7 2.3-0.3 1.2-1.4 3.1-2.4 4.2-1 1.1-1.6 2.3-1.4 2.8 0.3 0.4-0.3 0.7-1.3 0.7-1.2 0-1.9-1.1-2.4-3.7-0.4-2.5-0.1-5.3 1-8.3 0.9-2.5 3.6-6.5 6.1-9.1 2.9-2.9 6.6-5.3 10.1-6.6 3.4-1.3 9.5-2.3 16-2.7 6.6-0.5 13.1-1.6 17.5-3.1 3.8-1.3 9.7-3.5 13-4.9 4-1.7 7-2.5 9-2.1zm-70.7 87.8c1.5-0.1 2.4 0 1.9 0.2-0.4 0.3 0 1.2 0.8 2 0.8 0.8 1.5 1.9 1.5 2.5 0 0.6-1.4 1.4-3 2-2.4 0.8-3.1 0.7-3.5-0.5-0.3-0.8-0.5-2.5-0.5-3.7 0-1.8 0.6-2.3 2.8-2.5zm155.1 82.7c2.1 0 5.1 0.9 7.1 2.2 1.9 1.3 4.3 3.9 5.2 5.8 1 1.9 1.8 5.2 1.8 7.3 0 2-0.6 5.2-1.4 7-0.7 1.7-2.6 4.3-4.1 5.7-2 1.9-4 2.6-7.8 2.8-3.9 0.2-6-0.2-8.5-1.7-1.7-1.2-4-3.6-4.9-5.3-0.9-1.8-1.6-5.3-1.6-7.8 0-2.6 0.8-6 1.9-8 1.1-1.9 3.5-4.5 5.4-5.7 1.9-1.3 4.9-2.3 6.9-2.3zm-702 17.9l0.5 5.8c0.4 3.2 0.4 5.9 0.1 6.1-0.3 0.1-1.1-0.4-1.9-1-0.7-0.7-1.5-2.2-1.7-3.3-0.2-1.1 0.4-3.3 1.3-4.8zm4.7 48.1c0.2 0 2 0.7 3.9 1.5 2.3 1 3.3 1.9 2.8 2.7-0.5 0.7-2.2 0.9-5 0.5-3-0.5-4.4-0.3-4.8 0.6-0.3 0.6-0.1 2.4 0.5 4 0.6 1.5 0.7 2.7 0.3 2.7-0.4 0-2.1-1.3-3.8-3-2.3-2.4-2.6-3-1.2-3 1 0 2.4-1.2 3.2-2.7 0.8-1.6 1.5-2.1 1.5-1.3 0.1 1.2 0.3 1.1 1.1-0.2 0.6-1 1.2-1.8 1.5-1.8zm-61.2 11.5c2 0 3.8 0.6 4.1 1.3 0.3 0.7 0.5 2.7 0.5 4.5 0 3 0.1 3.1 1.4 1.2 1.3-2 1.3-2 2.7 0.3 0.8 1.2 1.8 2 2.2 1.7 0.4-0.3 1.2 0.4 1.7 1.5 0.9 1.7 0.4 2.6-3.1 5.8-2.3 2-4.9 4.3-5.8 4.9-0.8 0.7-1.9 1.3-2.3 1.3-0.4 0-0.8-1.3-0.8-3 0-2.3-0.4-3-2-3-1.1 0-3.3 0.7-5 1.5-1.8 0.9-3.1 1.1-3.5 0.5-0.2-0.5 0.9-2 2.6-3.2 1.8-1.4 3-3.2 3-4.5-0.1-1.8 0.7-2.4 3.5-3 2-0.5 3.5-1.2 3.5-1.8-0.1-0.5-1.4-1.4-3-2-1.6-0.5-3.2-1.3-3.5-1.7-0.3-0.5-0.4-1.1-0.2-1.5 0.3-0.5 2.1-0.8 4-0.8zm760.5 147.5c0.6 0 3.3 2.4 6 5.3 2.7 2.8 6.5 6.1 8.5 7.2 2.1 1.1 3.7 2.8 3.6 3.8 0 0.9-0.5 1.7-1.2 1.7-0.8 0.1-0.5 0.6 0.5 1.3 1 0.7 1.5 1.9 1.3 2.7-0.3 0.8-1.9 2.2-3.6 3-1.7 0.8-2.9 2-2.7 2.5 0.2 0.6 1.5 1.2 2.8 1.4 1.4 0.1 3.2 1.2 4.2 2.2 1 1.1 2.1 1.9 2.5 1.9 0.5 0 1.4-0.6 2-1.2 1-1 1.6-0.9 3 0.4 0.9 1 2.5 1.8 3.5 1.8 1 0 1.9 0.5 2 1.2 0.2 0.8 0.7 0.7 1.7-0.3 0.9-0.8 2.4-1.5 3.5-1.6 1.1-0.1 3.5 0.2 5.3 0.8 3.1 0.9 3.2 0.8 3.2-2.1 0-1.6-0.3-3-0.7-3-0.4 0-1.2-1-1.8-2.2-0.5-1.3-1.7-2.2-2.7-2-1 0.1-2.2-0.7-2.8-1.8-0.5-1.1-0.8-2.2-0.7-2.5 0.1-0.3 4.1 0.4 8.7 1.7 4.7 1.2 9.9 3.2 11.5 4.3 1.6 1.1 4 3.6 5.3 5.5 1.8 2.8 2.3 4.9 2.3 9.8 0 3.6-0.9 8.4-2 11.5-1.1 2.8-3.7 7.2-5.9 9.7-3.7 4.3-4 4.4-6.5 3.3-1.5-0.7-2.6-1.9-2.6-2.5 0-0.7-1.4 0.1-3.1 1.7-2.6 2.5-3.2 2.8-4 1.5-0.5-0.8-0.9-2.6-1-4 0-1.4-1.1-5-2.5-8-1.4-3-3.7-7-5-8.7-1.4-1.8-2.7-3.1-3-2.8-0.2 0.3 0.6 2 1.9 3.8 1.3 1.7 3.4 5.2 4.7 7.7 1.2 2.5 2.4 6.8 2.6 9.5 0.3 4.5 0.1 5.1-2.2 6.3-1.3 0.6-3.6 1.2-5 1.2-1.3 0-2.8 0.5-3.2 1.1-0.4 0.6-0.1 1.5 0.7 2 1.4 0.8 1.4 1 0 1.9q-1.5 1-0.2 1c0.7 0 1.2 0.6 1.2 1.3 0 0.6-1 1.4-2.2 1.7-1.2 0.2-5.4 0.4-9.3 0.4-5-0.1-8.4-0.7-12-2.3-2.7-1.2-6.5-3.6-8.3-5.4-1.8-1.8-4.2-4.9-5.2-6.9-1.3-2.5-2-5.9-2-9.8 0-4.8 1-8.4 4.6-17.7 2.6-6.5 5.1-14.5 5.7-17.8 0.7-4.1 0.7-7.9 0-12-0.6-3.3-1.4-6.8-1.8-7.7-0.5-1.1-0.3-1.8 0.4-1.8zm-460.9 124.1c3.1-0.1 7.6 0.6 10 1.4 2.5 0.9 9 4.5 14.5 8 5.5 3.5 11.7 7.1 13.8 7.9 3.1 1.3 3.5 1.9 2.5 3-0.7 0.8-1.6 1.2-2 1-0.4-0.2-0.8 0.1-0.8 0.6 0 0.6-1 1-2.2 0.9-1.2-0.1-3.3-0.1-4.5 0-1.8 0.1-2.3 0.7-2.3 3.1 0 1.7-0.4 3.2-1 3.5-0.5 0.3-2.3 0.2-4-0.2-2.2-0.6-3-1.4-3-3 0-1.3-0.6-3.5-1.3-5-0.8-1.6-2.7-3.9-4.3-5.3-1.6-1.4-4.7-3.2-6.9-3.9-2.4-0.8-5.5-1.1-8-0.7-2.2 0.4-7.1 2.5-10.8 4.7-4.4 2.6-8 5.6-9.9 8.2-1.6 2.3-3.8 7.1-4.9 10.7-1.1 3.6-2.3 10.3-2.6 15-0.4 6.5-0.1 10 1.3 15 1.1 3.6 3 8.1 4.5 10 1.4 1.9 4.2 4.3 6.2 5.3 2.1 0.9 5.3 1.7 7.2 1.7 2 0 4.8-0.6 6.3-1.4 1.5-0.8 3.6-2.4 4.7-3.6 1.6-1.7 2.1-3.8 2.2-9.3 0.1-4 0.2-7.6 0.3-8.2 0-0.5 0.7-0.1 1.5 1 0.8 1.1 1.5 1.6 1.6 1 0.1-0.5 0-2.8-0.1-5-0.1-2.2 0.4-5.1 1.2-6.5 1.3-2.4 1.4-2.2 1.8 3.5 0.5 5.5 0.8 6 3 6.3 1.4 0.2 3-0.2 3.5-0.7 0.5-0.6 1.3-1.1 1.7-1.1 0.5 0 0.8 0.7 0.8 1.5 0 0.8-1.3 3.2-3 5.3-1.6 2-3.4 5.6-4 8-0.5 2.3-0.7 5.4-0.3 7 0.3 1.5 1.4 4.2 2.5 6 1 1.8 3.7 4.2 6.1 5.3 3.3 1.7 5.6 2.1 10.2 1.8 3.8-0.3 8.1-1.4 11.5-3.1 4-1.9 6.6-4.1 9.5-7.9 2.2-3 4.8-7.5 5.8-10.1 0.9-2.7 2.2-9.4 2.8-15 0.6-5.7 1.1-11.6 1.2-13.1 0.2-1.6-0.1-3.1-0.5-3.3-0.4-0.2-0.8-1.5-0.8-2.9 0-1.4-0.3-2.5-0.7-2.5-0.4 0.1-1.3-1-1.9-2.2-0.7-1.4-1.9-2.3-3.5-2.3-1.5 0-2.4-0.6-2.4-1.7 0-0.9-1-2.8-2.2-4.2-1.2-1.4-2.3-2.8-2.3-3.1 0-0.3 0.6-0.5 1.3-0.5 0.7 0 3.6 1.1 6.5 2.5 2.9 1.4 7.1 4.4 9.3 6.8 2.2 2.3 4.9 6.6 6 9.5 1.2 3.1 1.9 7.7 1.9 11.5 0 3.7-0.9 8.8-2.2 12.7-1.3 3.6-3.8 9.2-5.8 12.4-1.9 3.2-5.9 8.1-9 11-3 2.8-8.4 6.6-12 8.4-3.5 1.7-9.4 3.9-13 4.8-4.7 1.2-9.4 1.5-17 1.2-9.9-0.4-10.9-0.6-19.5-4.7-6.6-3.3-10.5-6-15-10.5-3.3-3.3-7.4-8.8-9.2-12.1-1.8-3.3-3.9-9.1-4.7-13-0.8-3.8-1.5-9.6-1.5-12.7-0.1-3.2 0.6-9.3 1.5-13.5 0.9-4.3 2.8-10.3 4.3-13.3 1.5-3 4-7.2 5.7-9.4 1.6-2.1 5-5.2 7.4-6.9 2.5-1.7 6.1-3.6 8-4.3 2-0.7 6-1.3 9-1.3zm-188.8 4.9c2.4 0 5.4 0.6 6.8 1.3 1.3 0.7 3.5 2.8 4.8 4.7 1.5 2.3 2.3 4.9 2.3 7.8 0 2.3-0.5 5.4-1.1 7-0.6 1.5-2.1 3.7-3.3 5-1.2 1.3-3.7 2.7-5.7 3.2-2.2 0.6-4.7 0.6-7 0-1.9-0.6-4.5-2-5.7-3.3-1.3-1.2-2.8-3.8-3.4-5.7-0.6-2-0.8-5.4-0.4-8 0.6-3.3 1.8-5.5 4.5-8.2 3.2-3.2 4.5-3.8 8.2-3.8zm208.7 31.2c0.2 0.7-0.1 1.4-0.7 1.6-0.6 0.1-0.8 0.8-0.5 1.5 0.4 0.6 0.6 2.8 0.5 4.7-0.1 1.9 0.4 4.1 1.1 4.8 1 1 1 1.5 0 2.5-1 1-1.3 0.8-1.3-0.5 0-1-0.7-1.9-1.7-2.1-1.4-0.3-1.7-1.3-1.6-5.1 0.1-3 0.9-5.5 2-6.8 1.3-1.4 1.9-1.6 2.2-0.6zm228.1-1.2c2.1 0 5 0.9 7 2.3 2 1.2 4.3 3.8 5.3 5.7 1 1.9 1.7 5.2 1.7 7.3 0 2-0.6 5.2-1.3 7-0.8 1.7-2.6 4.3-4.1 5.7-2 1.9-4.1 2.6-7.9 2.8-3.9 0.2-6-0.2-8.4-1.7-1.8-1.2-4-3.6-4.9-5.3-1-1.8-1.7-5.3-1.7-7.8 0-2.6 0.8-5.9 2-8 1.1-1.9 3.5-4.5 5.3-5.7 1.9-1.3 5-2.3 7-2.3z"/>
		<path id="Path 7" class="s2" d="m901 657.5c1.2 1.1 3.7 5.1 5.5 9 1.9 3.9 3.5 8.6 3.7 10.5 0.2 1.9-0.1 3.7-0.5 4-0.5 0.3-1-1.5-1.2-4-0.1-2.5-1.2-6.5-2.5-9-1.2-2.5-3.3-6-4.6-7.8-1.3-1.7-2.4-3.5-2.4-4-0.1-0.4 0.9 0.2 2 1.3zm-488.8 90.6c1.6-0.1 4.5 0.6 6.6 1.5 2 0.8 4.8 2.5 6 3.7 1.3 1.2 3 3.4 3.8 5 0.8 1.5 1.4 3.8 1.4 5.2 0 1.4 0.4 2.7 1 3 0.6 0.3 1 1.2 1 2 0 0.8-0.3 1.4-0.8 1.3-0.4-0.2-2.3 1.1-4.2 2.9-1.9 1.8-5.7 5.2-8.3 7.5-2.6 2.4-5.2 5.7-5.8 7.3-0.7 2-0.7 5 0.1 9 0.5 3.3 1 7.6 1 9.5 0 1.9-0.6 4.6-1.3 6-0.6 1.3-2.8 3.5-4.7 4.7-2.1 1.5-5 2.3-7.2 2.3-2.1 0-5.5-0.8-7.5-1.7-2-1-4.7-3.2-6-4.8-1.2-1.6-3.2-5.8-4.3-9.2-1.2-3.8-2-9.1-2-13 0-3.8 0.9-10.4 2-14.8 1.1-4.4 3.3-10 4.8-12.5 1.8-2.9 5-6 9.2-8.8 3.6-2.3 7.9-4.7 9.5-5.1 1.6-0.5 4.2-1 5.8-1zm36.9 14.2c4.4 0.2 6.5 0.8 9.8 3.2 2.5 1.7 5.6 5.3 7.4 8.5 3 5.3 3.1 6 3.1 17 0 8.3-0.5 12.9-1.7 16.5-1 2.8-3.6 7.6-5.8 10.8-3.1 4.4-5.3 6.3-9.7 8.4-3.7 1.7-8 2.9-11.8 3.1-4.7 0.4-6.9 0-10.2-1.7-2.6-1.3-5.2-3.6-6.5-5.8-1.5-2.6-2.2-5.4-2.2-8.8 0-3.9 0.7-6 2.9-9.4 1.7-2.4 4.2-6.2 5.8-8.5 2.5-3.7 2.7-4.9 2.7-13.3 0-6 0.5-10.3 1.4-12 0.8-1.6 2.5-3.8 3.8-4.9 1.2-1.2 3-2.4 3.8-2.7 0.8-0.4 4-0.5 7.2-0.4z"/>
		<path id="Path 8" class="s3" d="m720.1 248c0.5 0 1.1 0.9 1.4 2 0.3 1.1 1 2 1.5 2 0.5 0 1 0.7 1 1.5 0 0.8-0.6 1.8-1.3 2.3-0.6 0.4-2 2.4-3 4.5-0.9 2-1.7 4.4-1.7 5.2 0 1-0.6 1.3-1.8 0.9-0.9-0.3-2.3-1.6-3-3-1-2-0.9-2.7 0.3-3.9 0.8-0.8 1.3-1.8 1-2.3-0.2-0.4 0.4-1.6 1.4-2.7 1-1.1 2.1-3 2.5-4.3 0.4-1.2 1.1-2.2 1.7-2.2zm-3.9 41c0.4 0 0.4 2.4 0.1 5.3-0.4 2.8-0.6 6.9-0.5 8.9 0.1 2.1-0.3 3.8-0.8 3.8-0.5 0-0.7-0.5-0.3-1.2 0.6-0.8 0.2-1-1.2-0.5-1.9 0.6-2 0.3-1.4-5.1 0.3-3.1 1.2-6.9 2-8.5 0.7-1.5 1.7-2.7 2.1-2.7zm-553.4 124.7c0.3 1 1.2 2.5 2.2 3.3 1.6 1.3 1.7 1.8 0.4 4.7-0.8 1.8-1.1 3.5-0.7 3.8 0.5 0.2 1.7-0.2 2.8-1 1.1-0.9 2.6-1.5 3.2-1.5 1 0 1 0.6-0.1 2.7-0.8 1.6-2.8 4-4.5 5.5-1.7 1.6-2.9 3.2-2.6 3.8 0.3 0.6 1.5 0.7 2.7 0.4 1.7-0.5 2-0.4 1.3 0.5-0.6 0.6-4.2 2.3-8 3.7-4.8 1.8-6.8 2.2-6.4 1.3 0.4-0.8 1.9-4.9 3.5-9.2 2.2-5.9 2.6-8 1.8-9-0.9-0.9-1.9 0.6-4.3 6.5-1.7 4.3-3.1 8.2-3.1 8.8 0 0.6-0.5 1-1 1-0.6 0-1.6-1.7-2.4-3.8-0.8-2-1.7-5.5-2.9-11.7l2.4 2.2c1.3 1.3 3 2.3 3.6 2.3 1 0 1.1-1.3 0.7-4.8-0.4-3.5-0.1-5.2 1.1-6.7 0.9-1.1 1.8-1.6 2.1-1 0.2 0.6 0.8 1.7 1.3 2.5 0.8 1.3 1.1 1.3 2.6 0 0.9-0.8 1.5-2 1.3-2.6-0.1-0.5 0.4-1.6 1.2-2.3 1.1-1 1.5-0.9 1.8 0.6zm-31.3 18.6c0.5 0.2 2.3 2.2 4 4.5 1.6 2.2 3.3 4.1 3.7 4.1 0.5 0.1 0.8-1.1 0.8-2.7-0.1-2.5 0.1-2.6 1.6-1.2 0.9 0.8 2.5 3.2 3.5 5.2 1.1 2.1 1.9 4.5 1.9 5.3 0 0.8-0.7 1.5-1.5 1.5-1.1 0-1.3 0.7-0.9 2.2 0.4 1.4 0.1 2.6-0.8 3-0.7 0.4-2.7 0.8-4.3 0.8-1.7 0-3.7-0.4-4.5-1-1.3-0.8-1.1-1.3 1-3.5 1.4-1.4 2.3-2.6 2-2.6-0.3 0-2.3-0.2-4.5-0.5-2.2-0.2-4.6-1-5.3-1.7-0.8-0.8-0.9-1.6-0.2-2.5 0.7-0.9 0.2-1.6-2-2.7-1.7-0.8-3.5-2.5-4.2-3.8-1.1-2-1-2.1 0.8-1.4 1 0.4 3 1.1 4.4 1.4 2.2 0.6 2.4 0.4 1.7-1.3-0.5-1.2-0.3-2.2 0.5-2.6 0.7-0.4 1.7-0.6 2.3-0.5zm35 10.8c0.5 0-0.2 1.1-1.8 2.4-1.5 1.4-2.7 2.8-2.7 3.2 0 0.5 2.2 0.5 5 0 3.2-0.4 5-0.3 5 0.3 0 0.6-0.6 1-1.3 1-0.6-0.1-1.8 0.6-2.5 1.5-1 1.2-0.9 1.6 0.3 2 0.9 0.3 1.3 1.2 0.9 2.2-0.5 1.3-0.8 1.4-1.3 0.5q-0.6-1.2-1.9 1.3-1.2 2.5-3.7 2.5c-1.4 0-2.7 0.6-2.9 1.2-0.3 0.7-0.5 0.3-0.5-1-0.1-2.1-0.3-2.1-3.4-1.1-3 1.1-3.4 1-5.4-1.7-1.2-1.6-1.9-3.3-1.5-3.8 0.4-0.5 2.3-0.6 4.2-0.3 1.9 0.3 5 0.9 6.8 1.4 2.4 0.6 3.2 0.5 3.2-0.5 0-0.6-1.1-1.6-2.5-2.2-1.4-0.6-4.3-1.1-6.5-1.3-2.2-0.1-4-0.5-4-1 0-0.4 1.5-1.4 3.2-2.4 1.8-0.9 5.3-2.2 7.8-2.9 2.5-0.7 4.9-1.2 5.5-1.3zm-57.8 5.9c0.1 0 1.6 2.7 3.3 6 1.6 3.3 3.4 5.8 4 5.5 0.5-0.3 1-2.2 1.1-4.3 0-2 0.4-4.6 0.9-5.7 0.7-1.9 0.9-1.8 1.9 0.7 0.6 1.6 1.1 3.5 1.1 4.3 0 0.8 0.4 1.5 1 1.5 0.5 0 1.2-0.7 1.5-1.5 0.3-0.8 0.8-1.5 1.2-1.5 0.5 0 1.3 1.9 1.8 4.2 1 4.1 1.2 4.3 4.3 4 1.7-0.1 3.2 0 3.2 0.3 0 0.3-1.4 3.4-3 7-1.7 3.6-3.5 6.5-4 6.5-0.6 0-1-0.4-1-1 0-0.6-2-3.1-4.4-5.8-2.4-2.6-6.2-5.9-8.5-7.5-2.2-1.5-4.7-2.4-5.4-2.1-0.8 0.4-0.2 1.4 1.8 2.9 2.8 2.2 2.9 2.4 1 3-1.1 0.4-2.6 0.4-3.3 0.1-0.6-0.3-1.6 0.2-2.1 1.1-0.9 1.7-1.2 1.7-5.5-0.5-2.5-1.2-4.6-2.6-4.6-3.2 0-0.6 0.8-1 1.7-1 1 0 2.4-0.4 3.2-0.8 1-0.5 1.1-1.2 0.3-2.7-0.7-1.5-0.6-2.3 0.4-3.3 1.1-1 1.7-0.9 3.1 0.3 1 0.8 2.1 1.5 2.5 1.5 0.5 0 0.7-1.5 0.6-3.3-0.1-1.9 0.2-3.7 0.7-4 0.5-0.4 1-0.7 1.2-0.7zm785.3 181.3c3.6 1 7.6 2.4 9 3 1.4 0.6 2.8 1 3.3 0.9 0.4-0.1 1.2 0.7 1.7 1.8 0.6 1.1 1.8 1.9 2.7 1.7 1-0.1 2.2 0.8 2.8 2.1 0.5 1.2 1.3 2.2 1.8 2.2 0.4 0 0.7 1.4 0.7 3 0 2.9-0.1 3-3.2 2-1.8-0.5-4.2-0.8-5.3-0.7-1.1 0.1-2.7 0.8-3.5 1.6-1 1-1.6 1-1.7 0.2-0.2-0.6-1.1-1.1-2-1.1-1 0-2.6-0.8-3.6-1.8-1.4-1.3-2-1.4-2.9-0.5-0.7 0.7-1.6 1.3-2 1.3-0.4 0-1.6-0.9-2.5-1.9-1-1.1-2.9-2.1-4.2-2.3-1.4-0.1-2.6-0.8-2.8-1.3-0.2-0.5 1-1.7 2.7-2.5 1.7-0.8 3.3-2.2 3.5-3 0.3-0.8-0.3-2-1.2-2.7-1.1-0.7-1.3-1.2-0.5-1.3 0.6 0 1.1-0.6 1-1.3-0.2-1.1 1.2-0.9 6.2 0.6zm25 47.8c1.1 1 2.6 1.9 3.3 1.9 0.6 0 0.1 1-1.3 2.1-1.4 1.1-4.2 3.1-6.2 4.4-2.1 1.4-6 3.4-8.8 4.5-4.4 1.8-5.2 1.8-6.5 0.5-1.1-1.1-1.2-1.6-0.2-1.9 0.9-0.3 0.8-0.7-0.3-1.4-0.8-0.5-1.2-1.5-0.7-2.1 0.4-0.6 1.8-1.1 3.2-1.1 1.4 0 4.6-1.1 7.3-2.4 2.6-1.4 5.5-3.4 6.5-4.5 1.7-1.9 1.7-1.9 3.7 0zm-467.2 80.5c1.6 0.9 3 2.1 3.1 2.7 0.2 0.7 0.6 0.3 1-0.8 0.7-1.9 0.9-1.8 3.4 1 1.5 1.6 2.3 3.3 1.9 3.7-0.4 0.5-2.5-0.1-4.7-1.2-2.2-1.1-6-2-8.5-2-2.5 0-5.7 0.7-7.2 1.5-2.7 1.5-2.8 1.4-2.8-1 0-1.9 0.5-2.5 2.3-2.6 1.2-0.1 3.2-0.1 4.5 0 1.2 0.1 2.2-0.4 2.2-0.9 0-0.5 0.5-0.8 1-0.5 0.6 0.3 0.9 0.1 0.9-0.4-0.1-0.5 1.2-0.3 2.9 0.5zm-19.7 7.4c0.5 0 1.6 0.2 2.4 0.5 1.3 0.4 1.3 0.8 0 3.5q-1.5 3-1.5 12c0 6.2-0.5 10-1.6 12.2-1.3 2.6-1.8 3-2.4 1.8-0.7-1.2-1.1-1.3-2.2-0.2-0.7 0.7-2.4 1.1-3.8 1-2.3-0.3-2.5-0.8-3-6.3-0.5-5.7-0.6-5.9-1.9-3.5-0.7 1.4-1.2 4.4-1 6.7 0.2 2.3 0.1 4.5-0.3 5-0.4 0.4-1.1-0.1-1.4-1.2-0.5-1.7-0.8-1.7-1.4-0.5-0.6 1-1 0.3-1.5-2.5-0.3-2.2-0.1-5.3 0.5-7 0.6-1.6 2.3-4.3 3.8-5.8 1.5-1.6 3.9-3.7 8.2-6.7l-0.2 5.2c-0.3 4.2 0 5.2 1.5 5.5 0.9 0.1 1.7 1.1 1.7 2 0 1.4 0.2 1.5 1.2 0.6 1-1 1-1.5 0.1-2.5-0.7-0.7-1.2-2.9-1.1-4.8 0.1-1.9-0.1-4.1-0.5-4.8-0.4-0.6-0.2-1.2 0.3-1.2 0.6 0 0.8-0.9 0.5-2-0.3-1.1 0.1-2.4 0.8-3 0.6-0.5 1.6-0.7 2.1-0.2 0.5 0.4 0.7-0.3 0.4-1.6-0.3-1.2-0.2-2.2 0.3-2.2zm34.6 2.9c0.7 0.9 1.7 2.2 2.3 2.8 0.5 0.7 1 2.2 1 3.3 0 1.1 0.3 2.2 0.8 2.4 0.4 0.2 0.6 1.7 0.5 3.3-0.1 1.5-0.2 3.9-0.3 5.3-0.1 1.5-0.7 0.2-1.3-3-0.7-3-2.5-7.6-4-10.3-1.9-3.3-2.3-4.8-1.4-5.1 0.6-0.2 1.7 0.4 2.4 1.3z"/>
		<path id="Path 9" class="s0" d="m411.3 752c2.8 0 3.6 0.3 3.2 1.5-0.3 0.8-0.1 1.5 0.5 1.5 0.5 0 1 0.5 1 1 0 0.5-0.5 0.8-1 0.5-0.6-0.3-1.7-0.2-2.6 0.3-0.9 0.4-1.5 1-1.5 1.4 0.1 0.5 0.1 1.3 0.1 1.8 0 0.6-1.2 0.8-2.8 0.4-1.6-0.3-3.2 0-3.9 0.8-0.9 1-0.9 1.9 0.2 4 1.4 2.6 1.3 3-0.5 4.8-1.8 1.8-2.2 1.9-4.3 0.5-1.2-0.8-2.5-1.5-3-1.5-0.4 0-0.7 1.1-0.7 2.5 0 1.4-0.3 2.5-0.8 2.5-0.4 0-1.6 1.6-2.7 3.5-1.6 2.9-1.8 3.8-0.7 4.8 0.7 0.6 1.2 1.7 1.2 2.2 0 0.5-1.8 1.1-4 1.3-3.6 0.2-4 0-4-2 0-1.3 0.7-5 1.6-8.3 0.9-3.3 2.4-7.6 3.4-9.5 1-1.9 3.1-4.7 4.7-6.2 1.5-1.5 5-3.9 7.8-5.3 2.7-1.3 6.7-2.5 8.7-2.5zm8.5 1.1c1.5 0.6 3.6 1.8 4.6 2.7 1 0.9 2.3 3.3 2.9 5.2 0.8 2.8 0.7 4.2-0.6 6.8-1.2 2.4-2.1 3.1-3.6 2.7-1.1-0.3-2.2 0.1-2.4 0.8q-0.4 1.2-0.5-0.3c-0.1-0.8-0.4-4.4-0.6-8-0.2-3.6-0.9-7-1.5-7.5-0.6-0.5-1-1.6-1.1-2.2 0-0.9 0.7-1 2.8-0.2zm44.4 22.9c0.5 0 1.1 0.8 1.3 1.8 0.2 0.9 1 4.8 1.7 8.7 1 5.2 1 8.5 0.2 13-0.5 3.3-2.3 8.7-3.9 12-1.5 3.3-4.5 7.6-6.5 9.5-2 2-5.9 4.3-9 5.3-3 0.9-7.2 1.7-9.4 1.7-2.2 0-5.5-0.9-7.3-2-1.7-1.1-4.1-3.5-5.2-5.2-1.1-1.8-2-5.1-2-7.3 0-2.9 0.9-5.3 3.2-8.8 2-3 3.9-4.7 4.8-4.5 0.8 0.2 1.4 1 1.2 1.6-0.1 0.7 0.7 1.7 1.8 2.2 1.5 0.8 2.1 0.6 2.5-0.5 0.3-0.9 1.2-1.3 2.2-0.9 1.2 0.4 2-0.1 2.5-1.5 0.8-2.1 0.8-2.1 5.5 0.4 2.7 1.4 5.5 2.6 6.3 2.6 0.8 0 2.1-0.6 2.8-1.3 0.6-0.7 1-2.1 0.7-3-0.3-1-0.1-1.8 0.5-1.8 0.6 0 0.8-1.1 0.5-2.5-0.4-1.9-0.1-2.5 1.2-2.5 1.5 0 1.6-0.2 0.3-1q-1.5-1-0.3-1c0.9 0 1.2-1.7 1-5.8-0.1-3.8 0.3-6.5 1.2-7.5 0.7-1 1.7-1.7 2.2-1.7zm-71.5 17.3c0.2 0.9 1.5 1.9 2.9 2.2 1.4 0.3 2.5 1.1 2.5 1.8-0.1 0.6-1.2 2.2-2.5 3.5-2.1 1.8-2.3 2.5-1.3 3.7 0.7 0.9 2.2 1.6 3.3 1.6 1.1 0 3-1.1 4.1-2.3 1.2-1.3 2.7-3.3 3.3-4.5 0.6-1.3 1.8-2.3 2.6-2.3 0.9 0 2 1.1 2.5 2.5 0.6 1.4 1 4.3 1 6.5 0 3.1-0.7 4.7-2.9 7-2.4 2.4-3.8 3-7.3 3-2.4 0-5.6-0.9-7.3-1.9-1.6-1-4-3.8-5.2-6.2-1.3-2.4-2.6-6.2-3-8.4-0.6-3.5-0.5-3.9 1-3.2 1 0.4 2.6 0.2 3.7-0.5 1.1-0.7 2.1-2 2.1-2.8q0.1-1.6 0.5 0.3z"/>
		<path id="Path 10" class="s2" d="m211.2 214.9c1.3 0.4 3 0.6 3.8 0.3 1.1-0.4 1.3-0.1 0.8 1.1-0.5 0.9-0.6 2.4-0.3 3.2 0.3 0.8 0.8 1.3 1.3 1.1 0.4-0.3 1.4-0.1 2.2 0.5 1.3 0.7 1.2 0.9-0.2 0.9-1 0-2.1 0.8-2.5 1.7-0.3 1-1.5 2.9-2.5 4.3-1 1.4-1.9 2.2-1.8 1.7 0-0.4-1.1-0.3-2.5 0.3-2.1 0.8-2.7 0.7-3.5-1-0.6-1.1-1.6-1.8-2.5-1.5-0.8 0.3-1.7 0.1-2-0.5-0.3-0.6 0.1-1.2 0.8-1.3 0.6-0.2 1.2-1.7 1.2-3.4 0-1.6 0.6-3.7 1.2-4.6 0.7-1 2-1.7 2.8-1.7 0.8 0 1.5-0.4 1.5-1-0.1-0.6 0.8-0.6 2.2-0.1zm658 181c1.3 0.4 3 0.6 3.8 0.3 1.1-0.4 1.3-0.1 0.8 1.1-0.5 0.9-0.6 2.4-0.3 3.2 0.3 0.8 0.8 1.3 1.3 1.1 0.4-0.3 1.4-0.1 2.2 0.5 1.3 0.7 1.2 0.9-0.2 0.9-1 0-2.1 0.8-2.5 1.7-0.3 1-1.5 2.9-2.5 4.3-1 1.4-1.9 2.2-1.8 1.7 0-0.4-1.1-0.3-2.5 0.3-2.1 0.8-2.7 0.7-3.7-1-0.7-1.1-1.8-2-2.3-1.9-0.5 0.1-1.5 0.1-2 0-0.5-0.1-0.5-0.5 0.2-0.9 0.7-0.4 1.4-2.3 1.7-4.2 0.3-2.4 1.2-4 3-5 1.4-0.8 2.6-1.8 2.6-2.2-0.1-0.4 1-0.4 2.2 0.1zm13.3 263.1c1.4 5.2 4.3 13.1 6.5 17.5 2.2 4.4 3.7 8.1 3.5 8.2-0.3 0.2-1.7-1.8-3.2-4.5-1.5-2.6-4-8.3-5.5-12.7-1.5-4.4-3-10.3-3.3-13-0.4-3.7 0.1-2.6 2 4.5zm-12.2-3.5l0.7 8.5c0.4 4.9 1.4 10 2.5 12 0.9 1.9 3.5 5.6 5.6 8.2 2.2 2.7 3.4 4.8 2.9 4.8-0.5 0-2.8-2.1-5-4.8-2.2-2.6-4.7-6.7-5.5-9.2-0.9-2.6-1.5-7.6-1.4-12zm-648.8 93.2c1.1 0.4 2.8 0.6 3.8 0.5q1.7-0.2 1.2 1.3c-0.2 0.8-0.2 2.2 0 3 0.3 0.8 0.9 1.3 1.3 1.1 0.4-0.3 1.4-0.1 2.2 0.5 1.3 0.7 1.3 0.9-0.2 0.9-1 0-2.1 0.8-2.4 1.7-0.4 1-1.5 2.9-2.6 4.3-1 1.4-1.8 2.2-1.8 1.7 0-0.4-1-0.3-2.2 0.2-1.8 0.7-2.5 0.5-3.5-1-0.7-1-2-1.9-3-1.9-1 0-1.3-0.4-0.8-0.8 0.6-0.4 1.2-1.3 1.3-2 0.1-0.6 0.4-2 0.7-3 0.2-0.9 1.2-2.9 2.2-4.4 1.3-2 2.4-2.5 3.8-2.1zm185.3 11.5c0.9 0.2 2.4 1.4 3.4 2.8 1.3 1.7 1.8 3.7 1.3 10.2l-2.5-1.9c-1.3-1.1-3.2-3.5-4.1-5.4-1.3-2.5-1.4-3.7-0.6-4.7 0.6-0.7 1.7-1.2 2.5-1zm-12.8 17.8c1.1 0 3.7 0.8 5.7 1.7 2 1 4.1 2.7 4.7 3.7 1.1 1.9 0.9 2-4.6 1.5-3.4-0.2-6.4-1.1-7.5-2.1-1.1-1.1-1.5-2.3-1-3.3 0.4-0.8 1.6-1.5 2.7-1.5zm263.5 1.7c1.1 0.3 2.5 0.7 3.1 0.8 0.5 0.1 1.2 0.8 1.6 1.6 0.3 0.8 0.6 2 0.7 2.6 0.1 0.7 0.5 1.1 0.9 0.9 0.4-0.3 1.4-0.1 2.2 0.5 1.3 0.7 1.3 0.9-0.2 0.9-1 0-2.1 0.8-2.4 1.7-0.4 1-1.5 2.9-2.6 4.3-1 1.4-1.8 2.2-1.8 1.7 0-0.4-1.1-0.2-2.5 0.3-2 0.8-2.7 0.7-3.7-1-0.7-1.1-1.7-2-2.3-1.9-0.5 0.1-1.4 0.1-2 0-0.5-0.1-0.3-0.6 0.5-1.1 0.9-0.5 1.5-2.3 1.5-3.9 0-1.9 1-4 2.5-5.5 1.7-1.6 3.2-2.3 4.5-1.9zm-209.2 15.5c5.2 0.3 6.3 0.7 8.1 3.1 1.9 2.4 2 2.9 0.6 4.3q-1.5 1.6-4.5 1c-1.6-0.3-4.9-1.9-7.2-3.6-2.3-1.6-4-3.5-3.7-4 0.4-0.6 3.2-1 6.7-0.8zm-46 2.8c1.5 0 2.7 0.5 2.7 1 0 0.5-1.1 2.3-2.5 4-1.3 1.7-3.5 3-4.7 3-1.2 0.1-2.8-0.5-3.5-1.2-1-1-1-1.6 0-2.9 0.7-0.9 2.1-2.1 3.2-2.7 1.1-0.6 3.3-1.2 4.8-1.2z"/>
		<path id="Path 11" class="s3" d="m214.4 746.6c0.8 0.4 1.5 1 1.6 1.5 0 0.5 0.6 0.9 1.3 0.9 1 0 0.9 0.5-0.3 2.1-0.8 1.2-1.6 3-1.8 4-0.1 1.1-0.3 2.5-0.5 3.1-0.1 0.7-0.6 1.6-1.2 2-0.6 0.4-0.2 0.8 0.7 0.8 1 0 2.4 0.9 3 1.9 1 1.5 1.8 1.7 3.5 1 1.3-0.5 2.3-0.6 2.3-0.2-0.1 0.5 0.8-0.3 1.8-1.7 1-1.4 2.2-3.3 2.5-4.3 0.4-0.9 1.5-1.7 2.4-1.7 1.6 0 1.7 0.6 1.1 4.2-0.5 2.7-1.5 4.9-3 6-1.3 0.9-3.2 2.2-4.3 2.9-1.7 0.9-2.6 0.7-5.3-1.2-2.8-2.1-3.4-2.2-4.2-0.9-0.6 1.2-1.2 0.8-2.6-2-1-1.9-1.8-5.6-1.8-8.3-0.1-2.6 0.2-4.7 0.6-4.7 0.5 0 0.8-0.7 0.8-1.5 0-0.8 0.4-1.5 1-1.5 0.6 0 1-0.7 1-1.5-0.1-0.9 0.5-1.2 1.4-0.9zm201.7 4.4c0.5 0 0.9 0.8 0.9 1.7 0 1 0.4 2.3 1 2.8 0.6 0.5 1.3 3.9 1.5 7.5 0.2 3.6 0.5 7.2 0.5 8q0 1.5 0.8 0.4c0.4-0.6 1.5-0.9 2.4-0.5 1.3 0.5 0.5 1.6-4 5.1-3.4 2.7-6.6 6.3-8 9-1.5 2.9-2.2 5.8-2 8.2 0.2 2.1-0.1 3.8-0.7 3.9-0.6 0-3.1 0.3-5.7 0.7-3.5 0.5-4.8 0.4-4.8-0.6 0-0.6-1.1-1.4-2.5-1.7-1.5-0.3-2.5-1.2-2.6-2.3 0-1.3-0.2-1.4-0.6-0.2-0.4 0.8-1.3 2-2.2 2.7-0.9 0.7-2.4 1-3.3 0.8-1-0.3-1.8 0.1-1.9 0.7 0 0.7-0.5-0.1-1-1.7-0.5-1.6-0.6-5-0.3-7.5 0.3-2.5 0.9-4 1.3-3.3 0.3 0.7 2.2 1.1 4.4 1 2-0.1 3.7-0.5 3.7-1 0-0.4 2.8-0.4 6.2 0 5.9 0.8 6.1 0.7 5.1-1.2-0.6-1.1-2.7-2.8-4.7-3.8-2-0.9-4.3-1.7-5.1-1.7-0.8 0-1.5-0.5-1.5-1 0-0.5 0.7-1.7 1.5-2.5 0.8-0.8 1.5-2.4 1.5-3.5 0-1.1 0.3-2 0.8-2 0.4 0 1.7 0.7 3 1.5 2 1.3 2.3 1.3 3.5-0.2 0.7-0.9 1.9-1.3 2.7-1 0.8 0.4 2.5 1.5 6.1 4.2v-4c-0.1-2.2-0.7-4.9-1.5-6-1.1-1.7-1.1-2.2 0-3.3 0.8-0.6 1.2-1.7 0.9-2.2-0.3-0.5 0.2-1.2 1-1.5 0.8-0.3 1.9-0.3 2.5 0 0.6 0.3 1 0 1-0.5 0-0.5-0.4-1-1-1-0.6 0-0.7-0.9-0.4-2 0.3-1.1 1-2 1.5-2zm32.2 13c1.5 0 4.5 0.9 6.7 2 2.2 1.1 5.2 3.6 9.5 9l-2 2.1c-1.6 1.7-2 3.3-1.7 8 0.1 4.2-0.2 5.9-1 5.9q-1.3 0 0.2 1c1.3 0.8 1.2 1-0.2 1-1.4 0-1.7 0.6-1.3 2.5 0.3 1.6 0 2.5-0.7 2.5-0.7 0.1-2-0.6-2.8-1.5-1-1.1-3.2-1.6-7.1-1.5-3.1 0-5.9 0.3-6.2 0.7-0.4 0.5-0.3 1.3 0.3 1.8 0.5 0.5 0.6 2 0.2 3.3-0.5 1.7-1.2 2.2-2.4 1.8-1.1-0.4-2 0-2.3 0.9-0.4 1.1-1 1.3-2.5 0.5-1.1-0.5-1.8-1.5-1.5-2 0.3-0.5-0.2-1.2-1-1.5-1.2-0.4-1.1-1 0.8-3.8 1.9-2.7 2.2-4.6 2.3-13.2 0.1-6.9 0.7-11 1.8-13.3 0.9-1.8 3-3.8 4.9-4.7 1.7-0.8 4.4-1.4 6-1.5zm210.4 12.4c2.3 0 4.8 0.8 5.6 1.6 0.7 0.8 1.9 2.7 2.5 4.2 1.1 2.6 1 2.8-1.3 3-1.3 0.2-2.5-0.2-2.6-0.7-0.1-0.5-0.2-1.6-0.3-2.2-0.1-0.7-0.3-1.3-0.6-1.2-0.3 0-1.7-0.4-3.3-1-2.3-1-3-0.8-5 1.4-1.3 1.4-3.1 2.5-4 2.5-0.9 0-1.7-0.8-1.7-1.8 0-0.9 0.8-2.4 1.9-3.3 1.1-0.9 2.5-1.9 3.3-2.1 0.7-0.3 3.2-0.5 5.5-0.4z"/>
		<path id="Path 12" class="s2" d="m451.3 775c0.4 0 1.4 0.2 2.2 0.5 0.8 0.3 1.5 1.6 1.5 3 0 1.8-0.9 2.9-3 4-1.6 0.8-4.7 1.8-6.8 2.1-2.3 0.4-4 0.3-4.5-0.5-0.4-0.6 0.2-2.3 1.2-3.7 1.1-1.5 3.5-3.2 5.3-4 1.8-0.7 3.6-1.3 4-1.4zm-12.5 33.2c1.9 1.8 3.9 5 4.6 7.2 1.1 3.5 1 4-1.1 5.7-1.7 1.5-2.7 1.7-4.2 0.9-1.1-0.5-2.5-2.5-3-4.3-0.6-1.7-1.1-5-1.2-7.3-0.1-2.2 0.3-4.4 0.7-4.8 0.5-0.3 2.4 0.8 4.2 2.6z"/>
		<path id="Path 13" class="s3" d="m210.5 218.2c1.6 0.2 2 1.1 2 3.7 0 2-0.7 3.8-1.7 4.5-1.2 0.8-2 0.7-3.3-0.4-0.9-0.8-1.7-2.4-1.7-3.6-0.1-1.1 0.4-2.6 1.2-3.2 0.8-0.7 2.4-1.1 3.5-1zm658 181c1.6 0.2 2 1.1 2 3.7 0 2-0.7 3.8-1.7 4.5-1.2 0.8-2 0.7-3.3-0.4-0.9-0.8-1.7-2.4-1.7-3.5-0.1-1.2 0.4-2.7 1.2-3.3 0.8-0.7 2.4-1.1 3.5-1zm-647 353c1.6 0.2 2 1.1 2 3.7 0 2-0.7 3.8-1.7 4.5-1.2 0.8-2 0.7-3.3-0.4-0.9-0.8-1.7-2.4-1.7-3.5-0.1-1.2 0.4-2.7 1.2-3.3 0.8-0.7 2.4-1.1 3.5-1zm436 31c1.6 0.2 2 1.1 2 3.7 0 2-0.7 3.8-1.7 4.5-1.2 0.8-2 0.7-3.3-0.4-0.9-0.8-1.7-2.4-1.7-3.5-0.1-1.2 0.4-2.7 1.2-3.3 0.8-0.7 2.4-1.1 3.5-1z"/>
		<path id="Path 14" class="s0" d="m436.1 807.5l2.4 4c1.4 2.2 2.5 5 2.5 6.3 0 1.3-0.5 2.1-1.3 1.9-0.6-0.2-1.8-1.4-2.4-2.8-0.7-1.3-1.3-4-1.3-5.9z"/>
	</g>
</svg>